<?xml version="1.0" encoding="UTF-8" standalone="no"?>
<svg
   xmlns:dc="http://purl.org/dc/elements/1.1/"
   xmlns:cc="http://creativecommons.org/ns#"
   xmlns:rdf="http://www.w3.org/1999/02/22-rdf-syntax-ns#"
   xmlns:svg="http://www.w3.org/2000/svg"
   xmlns="http://www.w3.org/2000/svg"
   xmlns:sodipodi="http://sodipodi.sourceforge.net/DTD/sodipodi-0.dtd"
   xmlns:inkscape="http://www.inkscape.org/namespaces/inkscape"
   version="1.1"
   id="svg11339"
   width="130mm"
   height="306.71844mm"
   viewBox="0 0 491.33856 1159.2507"
   sodipodi:docname="site_knotsteps.svg"
   inkscape:version="1.0.2 (e86c870879, 2021-01-15, custom)">
  <metadata
     id="metadata11345">
    <rdf:RDF>
      <cc:Work
         rdf:about="">
        <dc:format>image/svg+xml</dc:format>
        <dc:type
           rdf:resource="http://purl.org/dc/dcmitype/StillImage" />
        <dc:title></dc:title>
      </cc:Work>
    </rdf:RDF>
  </metadata>
  <defs
     id="defs11343">
    <marker
       style="overflow:visible"
       id="marker15489"
       refX="0"
       refY="0"
       orient="auto"
       inkscape:stockid="Arrow2Send"
       inkscape:isstock="true">
      <path
         transform="matrix(-0.3,0,0,-0.3,0.69,0)"
         d="M 8.7185878,4.0337352 -2.2072895,0.01601326 8.7185884,-4.0017078 c -1.7454984,2.3720609 -1.7354408,5.6174519 -6e-7,8.035443 z"
         style="fill:#000000;fill-opacity:1;fill-rule:evenodd;stroke:#000000;stroke-width:0.625;stroke-linejoin:round;stroke-opacity:1"
         id="path15487" />
    </marker>
    <marker
       style="overflow:visible"
       id="marker15239"
       refX="0"
       refY="0"
       orient="auto"
       inkscape:stockid="Arrow2Send"
       inkscape:isstock="true">
      <path
         transform="matrix(-0.3,0,0,-0.3,0.69,0)"
         d="M 8.7185878,4.0337352 -2.2072895,0.01601326 8.7185884,-4.0017078 c -1.7454984,2.3720609 -1.7354408,5.6174519 -6e-7,8.035443 z"
         style="fill:#000000;fill-opacity:1;fill-rule:evenodd;stroke:#000000;stroke-width:0.625;stroke-linejoin:round;stroke-opacity:1"
         id="path15237" />
    </marker>
    <marker
       style="overflow:visible"
       id="marker15057"
       refX="0"
       refY="0"
       orient="auto"
       inkscape:stockid="Arrow2Send"
       inkscape:isstock="true"
       inkscape:collect="always">
      <path
         transform="matrix(-0.3,0,0,-0.3,0.69,0)"
         d="M 8.7185878,4.0337352 -2.2072895,0.01601326 8.7185884,-4.0017078 c -1.7454984,2.3720609 -1.7354408,5.6174519 -6e-7,8.035443 z"
         style="fill:#000000;fill-opacity:1;fill-rule:evenodd;stroke:#000000;stroke-width:0.625;stroke-linejoin:round;stroke-opacity:1"
         id="path15055" />
    </marker>
    <marker
       style="overflow:visible"
       id="marker14883"
       refX="0"
       refY="0"
       orient="auto"
       inkscape:stockid="Arrow2Send"
       inkscape:isstock="true"
       inkscape:collect="always">
      <path
         transform="matrix(-0.3,0,0,-0.3,0.69,0)"
         d="M 8.7185878,4.0337352 -2.2072895,0.01601326 8.7185884,-4.0017078 c -1.7454984,2.3720609 -1.7354408,5.6174519 -6e-7,8.035443 z"
         style="fill:#000000;fill-opacity:1;fill-rule:evenodd;stroke:#000000;stroke-width:0.625;stroke-linejoin:round;stroke-opacity:1"
         id="path14881" />
    </marker>
    <marker
       style="overflow:visible"
       id="marker14717"
       refX="0"
       refY="0"
       orient="auto"
       inkscape:stockid="Arrow2Send"
       inkscape:isstock="true"
       inkscape:collect="always">
      <path
         transform="matrix(-0.3,0,0,-0.3,0.69,0)"
         d="M 8.7185878,4.0337352 -2.2072895,0.01601326 8.7185884,-4.0017078 c -1.7454984,2.3720609 -1.7354408,5.6174519 -6e-7,8.035443 z"
         style="fill:#000000;fill-opacity:1;fill-rule:evenodd;stroke:#000000;stroke-width:0.625;stroke-linejoin:round;stroke-opacity:1"
         id="path14715" />
    </marker>
    <marker
       style="overflow:visible"
       id="marker14559"
       refX="0"
       refY="0"
       orient="auto"
       inkscape:stockid="Arrow2Send"
       inkscape:isstock="true"
       inkscape:collect="always">
      <path
         transform="matrix(-0.3,0,0,-0.3,0.69,0)"
         d="M 8.7185878,4.0337352 -2.2072895,0.01601326 8.7185884,-4.0017078 c -1.7454984,2.3720609 -1.7354408,5.6174519 -6e-7,8.035443 z"
         style="fill:#000000;fill-opacity:1;fill-rule:evenodd;stroke:#000000;stroke-width:0.625;stroke-linejoin:round;stroke-opacity:1"
         id="path14557" />
    </marker>
    <marker
       style="overflow:visible"
       id="marker14439"
       refX="0"
       refY="0"
       orient="auto"
       inkscape:stockid="Arrow2Send"
       inkscape:isstock="true"
       inkscape:collect="always">
      <path
         transform="matrix(-0.3,0,0,-0.3,0.69,0)"
         d="M 8.7185878,4.0337352 -2.2072895,0.01601326 8.7185884,-4.0017078 c -1.7454984,2.3720609 -1.7354408,5.6174519 -6e-7,8.035443 z"
         style="fill:#000000;fill-opacity:1;fill-rule:evenodd;stroke:#000000;stroke-width:0.625;stroke-linejoin:round;stroke-opacity:1"
         id="path14437" />
    </marker>
    <marker
       style="overflow:visible"
       id="marker14203"
       refX="0"
       refY="0"
       orient="auto"
       inkscape:stockid="Arrow2Send"
       inkscape:isstock="true">
      <path
         transform="matrix(-0.3,0,0,-0.3,0.69,0)"
         d="M 8.7185878,4.0337352 -2.2072895,0.01601326 8.7185884,-4.0017078 c -1.7454984,2.3720609 -1.7354408,5.6174519 -6e-7,8.035443 z"
         style="fill:#000000;fill-opacity:1;fill-rule:evenodd;stroke:#000000;stroke-width:0.625;stroke-linejoin:round;stroke-opacity:1"
         id="path14201" />
    </marker>
  </defs>
  <sodipodi:namedview
     pagecolor="#ffffff"
     bordercolor="#666666"
     borderopacity="1"
     objecttolerance="10"
     gridtolerance="10"
     guidetolerance="10"
     inkscape:pageopacity="0"
     inkscape:pageshadow="2"
     inkscape:window-width="1770"
     inkscape:window-height="1063"
     id="namedview11341"
     showgrid="true"
     inkscape:zoom="2.2821387"
     inkscape:cx="119.69374"
     inkscape:cy="911.76311"
     inkscape:window-x="150"
     inkscape:window-y="0"
     inkscape:window-maximized="1"
     inkscape:current-layer="g16510"
     inkscape:snap-global="false"
     units="mm"
     fit-margin-top="0"
     fit-margin-left="0"
     fit-margin-right="0"
     fit-margin-bottom="0">
    <inkscape:grid
       type="xygrid"
       id="grid12332"
       units="mm"
       spacingx="151.1811"
       spacingy="151.1811"
       originy="-828.56248"
       originx="-2215.9744" />
  </sodipodi:namedview>
  <g
     inkscape:groupmode="layer"
     inkscape:label="Image"
     id="g11347"
     transform="translate(-2215.9746,-873.1611)">
    <g
       id="g15767"
       transform="matrix(0,-0.36212119,0.36212119,0,1981.2018,2178.0828)">
      <path
         style="display:inline;fill:#000000;stroke-width:0.666667"
         d="m 3474.2286,1859.521 c -4.7812,-1.8897 -10.3688,-11.6399 -15.3971,-26.8675 -5.8496,-17.7147 -13.3064,-51.1102 -18.7349,-83.9043 -1.3049,-7.8834 -2.5304,-15.2334 -2.7234,-16.3334 -0.193,-1.1 3.0787,8.2 7.2706,20.6667 5.8499,17.3981 8.2664,25.6884 10.3962,35.6667 6.9007,32.3307 13.8503,54.0467 19.7879,61.8333 2.438,3.1972 4.0815,2.8555 7.2309,-1.5036 1.4555,-2.0146 2.7622,-3.663 2.9037,-3.663 0.1415,0 1.1145,0.7213 2.1622,1.6029 1.0477,0.8815 2.2591,1.7209 2.6919,1.8652 0.5966,0.1989 0.5844,0.6405 -0.05,1.8266 -1.2844,2.3999 -6.0678,7.3621 -8.1197,8.4231 -1.9272,0.9966 -5.4155,1.1788 -7.4179,0.3873 z m 19.1836,-15.3352 c -5.105,-2.4385 -9.3317,-8.346 -16.073,-22.4644 -35.7189,-74.8072 -84.4853,-260.2238 -112.2103,-426.6389 -19.3001,-115.8462 -28.2026,-213.8907 -27.1796,-299.3333 0.6749,-56.3712 4.9467,-97.05507 14.1398,-134.66668 11.1827,-45.75186 28.2343,-77.2375 52.3231,-96.61428 6.2383,-5.01802 16.9725,-11.63548 17.6976,-10.91032 0.1294,0.12929 -0.3684,2.21246 -1.1061,4.62926 -1.3189,4.32064 -1.4271,4.45014 -6.4664,7.73872 -13.5053,8.81338 -26.7869,24.64017 -36.324,43.28509 -16.9748,33.18554 -26.6078,75.52884 -31.5171,138.53821 -1.4342,18.4091 -2.0164,77.1056 -1.0156,102.4061 3.839,97.0491 18.0408,207.5458 42.3188,329.2605 28.5825,143.2951 68.6069,283.888 97.4566,342.3334 8.8176,17.8633 12.7793,20.0959 19.1119,10.7708 23.4894,-34.5897 45.5003,-203.6544 53.8265,-413.4375 2.4689,-62.2053 3.6184,-133.2958 3.0722,-190 -0.2366,-24.5667 -0.5626,-46.7667 -0.7244,-49.3333 -0.1619,-2.5667 -0.4618,-12.1667 -0.6665,-21.3334 -0.356,-15.9374 -1.2362,-39.7763 -1.9939,-54 -0.1953,-3.6666 -0.5058,-9.5166 -0.6899,-13 -7.2521,-137.18186 -25.3904,-235.3996 -50.2854,-272.29242 -5.0593,-7.49755 -11.1679,-13.36979 -16.5702,-15.92917 -3.9123,-1.85344 -5.1097,-2.10387 -9.7907,-2.04768 -6.3118,0.0758 -11.1154,1.70009 -16.0925,5.4417 -12.6545,9.51322 -23.5169,29.30892 -32.2565,58.78483 -15.2959,51.58818 -24.285,130.18158 -27.3708,239.30864 -0.8978,31.7528 -0.4674,146.0431 0.6682,177.4008 3.3848,93.472 7.6956,165.2397 14.7564,245.6667 3.048,34.7174 9.7596,99.8728 11.7088,113.6666 0.2331,1.65 0.2482,2.8378 0.033,2.6396 -0.2147,-0.1983 -3.1037,-11.0222 -6.4199,-24.0532 l -6.0296,-23.6926 -2.2946,-22.9469 c -9.0366,-90.3691 -16.8542,-210.4305 -18.749,-287.9469 -0.2196,-8.9833 -0.5288,-17.3833 -0.687,-18.6666 -0.7823,-6.3453 -1.0534,-133.7803 -0.339,-159.3334 4.2777,-153.0064 19.9648,-248.33581 47.7878,-290.4037 8.3906,-12.68637 17.7026,-20.04079 28.565,-22.55993 5.6526,-1.31094 8.8177,-1.30641 13.9362,0.0199 41.0334,10.63282 66.9957,113.32393 77.0956,304.94373 7.5665,143.5539 3.4972,338.6849 -10.3437,496 -11.7095,133.0896 -27.7967,219.3548 -45.2837,242.8255 -4.542,6.0962 -10.8221,8.4268 -16.0186,5.9445 z m 2.4219,-15.2221 c -1.8094,-2.791 -2.0697,-1.5252 3.2649,-15.8812 7.3171,-19.6914 15.6908,-47.6272 24.0798,-80.3333 4.4165,-17.2189 5.874,-22.1147 4.9616,-16.6667 -0.215,1.2833 -1.615,9.8333 -3.1114,19 -3.5498,21.7469 -7.3134,40.6082 -10.9081,54.6667 -4.7453,18.5582 -13.2779,40.6027 -16.042,41.4455 -0.3667,0.1118 -1.3768,-0.8921 -2.2448,-2.231 z m 65.298,-239.5481 c -0.029,-0.9166 0.2451,-4.8166 0.6084,-8.6666 0.3633,-3.85 1.5699,-19.6 2.6812,-35 1.4603,-20.2357 2.6527,-32.0671 4.3,-42.6667 12.2541,-78.8513 21.5625,-168.2223 25.3441,-243.3333 7.9925,-158.747 -5.4867,-275.29347 -39.6698,-343.00002 -3.2898,-6.51636 -4.1293,-8.95856 -5.5946,-16.277 -0.9482,-4.73568 -1.6006,-8.7338 -1.4497,-8.88471 0.3571,-0.35707 4.6526,6.07636 8.5654,12.82838 42.5366,73.40274 56.9337,215.37105 41.7811,411.99995 -6.0184,78.0989 -17.4121,167.2896 -32.0216,250.6667 -4.1004,23.4011 -4.4565,25.1512 -4.5445,22.3333 z m -42.3865,-718.37697 c -17.5102,-13.62955 -36.8953,-19.67575 -60,-18.71389 -5.5,0.22896 -11.3146,0.72849 -12.9214,1.11006 -1.6067,0.38158 -3.0746,0.54048 -3.2619,0.35313 -0.1873,-0.18735 0.2551,-1.90864 0.9833,-3.82509 1.0393,-2.73516 1.7408,-3.61388 3.262,-4.08642 3.6338,-1.12876 27.3397,-0.8484 33.9882,0.40197 12.6816,2.38504 23.1826,6.38575 33.48,12.7555 5.4959,3.39963 6.0321,3.9219 6.7124,6.53826 0.4068,1.56393 1.1792,4.2685 1.7166,6.01017 0.5373,1.74166 0.9164,3.14914 0.8422,3.12771 -0.074,-0.0214 -2.2348,-1.67355 -4.8014,-3.6714 z"
         id="path12316"
         sodipodi:nodetypes="ssssssssssssssssssssssssssssssssssscssssssssssscssssssssssssssssssssssssssssssssssssssssssss" />
      <g
         id="g16510"
         transform="translate(0,366.437)">
        <path
           style="display:inline;fill:#000000;stroke-width:0.666667"
           d="m 956.3149,1262.2464 c -12.2532,-1.7547 -19.18134,-3.774 -27.346,-7.9701 -16.05174,-8.2496 -24.9664,-21.8279 -31.54807,-48.0519 -5.36707,-21.3843 -6.3076,-47.1629 -2.72673,-74.7322 3.307,-25.4609 11.0062,-48.0533 20.91013,-61.3588 3.67573,-4.9381 11.56767,-12.9169 15.00227,-15.1673 2.08626,-1.367 2.83026,-0.894 3.70533,2.356 l 0.69987,2.599 -6.8484,6.8728 c -7.47967,7.5063 -11.38554,13.3571 -15.88674,23.7977 -5.0954,11.8189 -9.20613,28.0644 -11.65873,46.0751 -1.44713,10.6267 -2.02727,37.1268 -1.02287,46.7257 1.62647,15.5451 6.134,32.3123 11.7318,43.6403 8.46107,17.1222 22.99654,26.3235 45.83927,29.0175 17.37637,2.0493 38.20862,-4.6374 48.17287,-15.4625 9.3443,-10.1516 16.3769,-27.8105 20.0136,-50.2544 2.3469,-14.4832 1.9782,-45.4546 -0.7657,-64.3333 -4.1743,-28.7205 -11.0979,-46.566 -22.6969,-58.5022 l -5.42525,-5.5828 1.0524,-3.2908 c 0.5788,-1.81 1.3244,-3.2909 1.6568,-3.2909 0.3325,0 3.50025,2.925 7.03955,6.5 13.6227,13.7604 21.0118,32.526 25.0505,63.6189 7.1091,54.731 -3.1683,105.1417 -25.1043,123.1366 -7.99835,6.5613 -19.33075,11.2288 -31.8419,13.1149 -5.8321,0.8791 -13.9456,1.1238 -18.0028,0.5427 z m -5.9572,-139.2703 c -12.3662,-3.1946 -21.8486,-9.4065 -25.40474,-16.6428 -2.33273,-4.7468 -2.23313,-12.1803 0.24887,-18.5739 1.97873,-5.0971 6.59353,-12.3961 9.7266,-15.3841 l 2.05313,-1.9581 v 5.1147 c 0,4.5394 -0.22966,5.488 -2.04146,8.4326 -4.49734,7.309 -5.78714,15.08 -3.38187,20.3746 2.93193,6.4539 13.3504,12.1788 26.06727,14.3237 10.2515,1.7292 23.58265,-1.4672 32.05355,-7.6855 7.7944,-5.7215 8.9085,-13.3219 3.553,-24.2394 -2.388,-4.8683 -2.4071,-4.973 -1.5535,-8.5311 0.4753,-1.9812 1.1027,-3.7497 1.3943,-3.9299 0.7291,-0.4506 4.2069,4.4776 6.6231,9.3855 3.93285,7.9887 4.82435,14.4925 2.88295,21.0303 -0.8458,2.8478 -1.93,4.4451 -5.18155,7.6332 -10.7078,10.499 -30.38195,14.9534 -47.03965,10.6502 z m -8.33154,-23.5935 c -0.7196,-0.7951 -1.3054,-2.8644 -1.53846,-5.4345 -0.32387,-3.5718 -0.19947,-4.28 0.89206,-5.0799 1.15494,-0.8462 1.26367,-1.8368 1.21467,-11.0655 -0.0939,-17.6814 -2.82447,-26.1985 -11.58273,-36.1273 -2.5832,-2.9285 -4.6968,-5.5143 -4.6968,-5.7461 0,-0.4766 4.11453,-1.2442 6.729,-1.2553 1.24913,-0.01 2.4728,0.8749 4.40953,3.1717 9.26393,10.9864 12.43013,21.4758 12.42227,41.1543 -0.007,12.1584 -1.069,19.2466 -3.10354,20.6717 -1.91293,1.3398 -3.3512,1.2522 -4.746,-0.2891 z m 32.69364,-2.2479 c -0.7332,-0.536 -1.5078,-2.5922 -2.0365,-5.4053 l -0.8531,-4.5401 2.1938,-0.9166 c 1.20655,-0.5042 2.34905,-1.4468 2.53875,-2.0947 0.1898,-0.6479 1.7221,-6.128 3.4052,-12.178 4.1698,-14.9884 5.2218,-18.1409 9.8442,-29.5 l 4.0016,-9.8333 h 3.2716 c 2.0704,0 3.39365,0.3184 3.60435,0.8672 0.183,0.477 -1.27815,4.752 -3.24705,9.5 -4.3489,10.4877 -7.347,19.4924 -11.7529,35.2994 -4.4368,15.9182 -4.7215,16.7628 -6.1768,18.325 -1.4414,1.547 -3.1032,1.7122 -4.79315,0.4764 z m -3.8907,-15.5258 c -0.2012,-0.3349 -1.055,-3.7118 -1.8974,-7.5041 l -1.5315,-6.8953 -6.0426,0.2286 -6.0427,0.2286 -0.42267,-3 c -0.23247,-1.65 -0.18607,-3.2564 0.10313,-3.5698 1.50867,-1.6349 18.48124,-0.9988 21.05539,0.7892 0.3901,0.2709 -0.4402,4.367 -2.10595,10.3895 -1.5124,5.4683 -2.9145,9.6683 -3.1157,9.3333 z m -93.39914,-12.8996 c -4.00293,-0.8098 -5.33693,-2.6174 -5.65846,-7.6674 -0.2378,-3.7348 -0.008,-4.8872 1.7002,-8.514 7.68533,-16.3202 28.3022,-26.6739 62.8432,-31.5599 10.41433,-1.4732 49.24795,-2.0988 62.23095,-1.0026 10.33685,0.8727 22.44055,2.767 28.33005,4.4337 10.7197,3.0337 19.0428,9.0902 20.719,15.0765 3.054,10.908 -6.2536,15.9067 -27.898,14.9828 -7.6002,-0.3244 -18.3628,-1.9038 -19.3081,-2.8334 -0.50955,-0.5009 2.5565,-6.6218 3.235,-6.4582 6.67,1.6079 14.1069,2.2745 22.3579,2.0039 13.6618,-0.448 16.8909,-2.0972 13.9277,-7.1135 -5.8341,-9.8763 -39.6997,-15.32 -83.26177,-13.3839 -22.60267,1.0046 -40.17647,4.2818 -54.14633,10.0974 -13.01714,5.4191 -23.51974,15.666 -23.51974,22.9471 v 2.4375 l 4.5,-0.4467 c 7.30427,-0.7251 14.71714,-2.8821 21.92534,-6.3798 6.329,-3.071 16.08173,-9.9707 17.38473,-12.299 0.4808,-0.8592 1.02407,-0.5811 3.18153,1.6283 l 2.60167,2.6643 -1.96333,2.0751 c -2.7638,2.9211 -8.722,7.4456 -13.46827,10.2273 -10.70553,6.2743 -27.93667,10.6575 -35.71327,9.0845 z m 96.88494,-17.4233 c -5.2743,-1.4545 -13.7446,-1.6043 -18.54,-0.3279 -3.22554,0.8586 -3.57487,0.8431 -3.9318,-0.1746 -0.21547,-0.6142 -0.77334,-2.0709 -1.2398,-3.2369 -0.8212,-2.0528 -0.7846,-2.1423 1.15266,-2.8176 1.10047,-0.3836 3.4764,-0.8932 5.27987,-1.1325 3.81677,-0.5063 3.86007,-0.6604 1.94577,-6.9298 -0.7278,-2.3834 -1.3255,-4.4234 -1.3283,-4.5333 0,-0.11 1.6962,-0.11 3.7756,0 4.1923,0.2217 3.7194,-0.3647 5.8753,7.2838 l 1.0572,3.7505 3.2311,0.4286 c 1.7771,0.2358 4.79425,0.8928 6.70465,1.4602 3.152,0.936 3.4365,1.179 3.0736,2.6248 -0.716,2.8528 -1.6785,4.9874 -2.206,4.8926 -0.2842,-0.051 -2.4666,-0.6306 -4.84985,-1.2879 z m 3.52045,-11.6574 c -2.2805,-2.0343 -4.77585,-4.5829 -5.54535,-5.6637 L 970.8908,1032 h 4.62625 c 4.4154,0 4.7571,0.1161 7.4949,2.5456 l 2.8684,2.5456 -1.2827,3.1185 c -0.7055,1.7153 -1.5828,3.1184 -1.9495,3.1182 -0.3666,-4e-4 -2.5324,-1.665 -4.8128,-3.6993 z m -34.07572,-2.9231 c -1.16127,-1.445 -2.1114,-2.7949 -2.1114,-2.9998 0,-0.2048 0.86047,-0.3724 1.9122,-0.3724 1.74427,0 1.94547,0.2478 2.29053,2.8206 0.20814,1.5513 0.29774,2.9012 0.1992,2.9998 -0.0986,0.099 -1.12933,-1.0032 -2.29053,-2.4482 z m -35.25627,-19.8253 c -3.98773,-4.7802 -9.3074,-13.1858 -12.15953,-19.21352 -2.6346,-5.56787 -5.0264,-12.22473 -4.55993,-12.6912 0.14933,-0.14933 2.0652,0.57673 4.25746,1.61353 3.9644,1.87487 4.0044,1.92267 7.37254,8.81474 3.32733,6.80845 9.15,15.62345 12.96533,19.62805 2.43313,2.5538 2.43593,3.3682 0.0133,3.8527 -1.05726,0.2114 -2.66166,0.57 -3.5654,0.7968 -1.376,0.3454 -2.07893,-0.1099 -4.32393,-2.8011 z m 27.5676,-4.6488 c -1.79546,-13.0991 -23.80826,-26.47332 -85.0894,-51.69719 -70.05907,-28.83687 -86.76687,-36.13653 -102.33334,-44.7096 -44.59986,-24.5628 -67.66666,-61.08887 -67.66666,-107.14967 0,-29.544 9.566,-60.15166 27.20033,-87.03106 7.1988,-10.9728 12.40653,-17.38474 21.0986,-25.97721 18.45473,-18.24328 38.2684,-27.32776 54.63734,-25.05105 8.76706,1.21939 14.12053,4.44163 17.25273,10.38439 1.0852,2.05898 1.46253,4.18586 1.65573,9.33333 0.44694,11.90807 -3.4742,23.80394 -20.54653,62.33334 -17.85547,40.29673 -24.37413,59.13893 -27.67687,80 -1.47347,9.30706 -1.01153,26.7738 0.8904,33.66666 2.44807,8.87194 6.12967,15.9312 11.72947,22.4904 11.5388,13.51574 50.37193,36.77687 79.7588,47.7758 21.84674,8.17674 53.76867,21.02687 64.6164,26.0112 19.4624,8.94261 32.91927,17.84227 37.495,24.79721 2.34714,3.56746 5.025,9.92553 8.58224,20.37665 2.0952,6.1552 2.0653,6.2154 -3.0815,6.2154 -1.76,0 -2.94547,-0.3058 -2.94547,-0.7598 0,-1.2158 -5.38393,-15.94485 -7.05147,-19.29119 -4.45346,-8.93673 -22.07166,-19.47933 -55.6152,-33.27973 -9.1382,-3.75967 -51.11853,-20.0026 -51.6972,-20.0026 -0.63473,0 -33.50327,-13.64734 -47.3028,-19.64054 -18.75813,-8.1468 -38.05727,-17.82046 -45.9478,-23.0312 -7.15674,-4.7262 -17.37794,-13.09633 -22.4976,-18.42346 -9.01747,-9.38274 -18.56007,-25.3678 -22.4292,-37.57147 -7.91687,-24.97113 -6.73587,-52.30187 3.48446,-80.63493 1.84727,-5.121 3.00227,-7.52394 3.03654,-6.31714 0.0113,0.39307 -0.72314,5.10307 -1.6318,10.4668 -5.06134,29.8772 -4.7606,55.62067 0.87006,74.48527 7.93147,26.57293 25.7308,46.4504 54.48714,60.8488 9.4562,4.7348 21.61207,10.0562 22.02607,9.64227 0.1442,-0.14427 -2.21127,-2.0264 -5.23447,-4.18247 -11.33247,-8.0822 -19.70134,-18.0446 -24.3406,-28.97527 -4.25687,-10.02966 -5.12807,-14.94213 -5.1428,-29 -0.014,-13.34573 0.4052,-16.85346 3.67446,-30.7418 3.97527,-16.88773 10.47201,-34.21586 25.96661,-69.2582 15.48433,-35.019 19.33686,-46.22686 19.50126,-56.73281 0.0671,-4.28613 -0.18826,-5.86651 -1.23833,-7.6644 -2.83453,-4.85347 -9.35393,-7.10834 -18.23387,-6.30656 -34.09613,3.07858 -74.18147,51.24971 -84.9096,102.03711 -2.4226,11.46866 -3.1072,17.88246 -3.1072,29.1104 0,33.8208 12.76833,61.4002 38.66667,83.51933 18.06486,15.42873 36.24353,24.34747 118,57.89247 29.5888,12.1404 42.63754,17.89473 58,25.57733 27.2468,13.62594 37.8728,22.62679 39.99594,33.87879 0.45813,2.4282 0.72153,4.5108 0.5852,4.628 -0.13627,0.1172 -1.78134,0.4086 -3.65574,0.6475 l -3.40786,0.4343 z m 67.68684,2.5652 c -2.9438,-0.1684 -3.4865,-0.3878 -3.1473,-1.2718 3.5696,-9.302 9.99,-41.25712 10.8212,-53.85812 0.3212,-4.8684 0.1268,-7.0636 -1.0303,-11.63954 -1.7937,-7.09306 -4.4949,-11.68193 -10.41975,-17.7014 -5.9456,-6.0404 -11.8788,-9.9204 -25.27275,-16.527 -5.9,-2.9102 -10.8263,-5.3794 -10.9473,-5.4872 -0.3552,-0.3164 4.8223,-4.9404 5.5533,-4.95966 1.5713,-0.0413 19.19855,9.09306 25.01835,12.9644 7.55075,5.02266 15.51105,13.08653 18.83885,19.08373 1.3021,2.34667 3.0553,6.51667 3.896,9.26667 2.7082,8.85946 1.7801,22.54727 -3.1361,46.25067 -1.884,9.08345 -5.5848,23.24145 -6.208,23.74935 -0.2249,0.1833 -2.0097,0.2417 -3.9662,0.1299 z m -38.314,-1.9632 c -0.1558,-0.275 -1.113,-3.05 -2.1271,-6.1667 -1.0141,-3.1167 -2.8806,-8.3154 -4.1479,-11.55275 -1.2672,-3.23734 -2.1761,-6.014 -2.01977,-6.17034 0.46153,-0.46146 5.78727,6.15314 8.26107,10.26019 2.1129,3.5078 4.9048,11.0215 4.9048,13.1998 0,0.9866 -4.339,1.3694 -4.8711,0.4298 z m -71.29557,-63.93906 c -1.375,-0.57033 -2.5,-1.33786 -2.5,-1.70566 0,-0.3678 0.97393,-2.49594 2.16427,-4.72927 4.43993,-8.3302 15.44093,-17.26687 29.00393,-23.56133 3.5742,-1.65867 10.10007,-4.7568 14.50193,-6.88467 l 8.00354,-3.8688 14.6679,-14.9056 c 16.22445,-16.48733 23.80345,-25.91813 28.96165,-36.0378 4.5475,-8.92147 5.5894,-12.80613 5.2232,-19.4736 -0.4698,-8.5538 -4.2455,-14.09733 -13.1601,-19.32207 -11.52015,-6.7518 -31.79179,-11.7478 -47.59925,-11.73093 -15.4442,0.0167 -21.7128,4.05253 -21.7524,14.00547 -0.0547,13.6798 14.6326,39.683 36.49266,64.6096 l 5.51587,6.2896 -2.1424,2.2104 c -1.17827,1.21566 -2.52447,2.21033 -2.99153,2.21033 -1.02354,0 -10.67827,-11.1448 -17.7896,-20.53507 -11.2178,-14.81266 -20.39,-30.79433 -24.1802,-42.1316 -1.5442,-4.61906 -1.8968,-6.83753 -1.90694,-12 -0.014,-7.1116 0.71094,-9.54226 4.1162,-13.80013 2.6046,-3.25673 8.73287,-6.5226 14.12894,-7.52967 8.78586,-1.63973 23.926,-0.3582 38.7423,3.27927 14.63735,3.59353 24.10675,8.2 31.17815,15.167 14.35015,14.138 11.26075,34.23067 -9.2076,59.88353 -6.616,8.2918 -33.07479,34.75954 -37.30385,37.3164 -2.01667,1.21927 -8.16667,4.22434 -13.66667,6.67794 -5.5,2.45366 -12.36773,5.85866 -15.2616,7.56673 -6.8588,4.04833 -14.1338,10.86487 -17.07527,15.99927 -1.2814,2.23666 -2.6298,4.06013 -2.99646,4.05213 -0.36667,-0.008 -1.79167,-0.48113 -3.16667,-1.05147 z M 766.31489,934.61128 c -7.51666,-1.80374 -16.06667,-4.07294 -19,-5.0426 -18.2454,-6.0314 -36.33927,-19.28787 -52.11947,-38.18534 -33.1902,-39.74673 -55.81847,-102.0992 -55.78507,-153.71666 0.009,-13.55174 0.77987,-20.91127 3.24827,-31 3.79713,-15.51993 11.0422,-27.24485 21.02334,-34.02293 14.95133,-10.15324 38.15346,-9.5396 46.41033,1.22744 3.70287,4.82865 5.02073,9.4397 5.3938,18.87251 l 0.3326,8.41038 -4.47233,5.92293 -4.47234,5.923 0.5538,-5 c 0.87947,-7.94113 0.68194,-21.96823 -0.3506,-24.89052 -2.21826,-6.27838 -7.383,-9.64962 -15.68033,-10.23517 -22.19653,-1.56643 -37.2002,12.47776 -42.73027,39.99762 -6.7612,33.6468 2.5546,84.82574 23.36327,128.35207 11.09773,23.21347 24.09493,41.97047 39.3718,56.8196 11.3886,11.06973 19.45653,16.5774 34.03893,23.2372 18.41441,8.40987 35.22094,16.2032 35.48541,16.45487 0.492,0.46826 -0.71807,0.20946 -14.61114,-3.1244 z"
           id="path12328"
           sodipodi:nodetypes="ssssssscsssssssssscssssssssssscsssssssssssssssssscscsssscsssscsssssssscccssssssscsssssscssssscsssscsssssssssscsscssssssscsscssssssssssssssssssssssssssssssssssssssssssssssssssssssssssssssssssscssssssssssssssssssssssssssscssssscscssssssssssssssssssscsssscccsssssssss" />
        <path
           id="path13635"
           style="fill:none;fill-opacity:0.989547;fill-rule:evenodd;stroke:#000000;stroke-width:7.7285;stroke-linecap:round;stroke-linejoin:round;stroke-miterlimit:4;stroke-dasharray:15.457, 15.457;stroke-dashoffset:0;stroke-opacity:1;marker-end:url(#marker14203);paint-order:fill markers stroke"
           d="m 922.89395,763.29379 c 22.23144,11.08043 52.06944,7.32748 68.30111,-8.5909 16.23164,-15.91831 13.32024,-38.57233 -6.66422,-51.8564 -17.33705,-11.52419 -42.39305,-12.5866 -61.13132,-3.47337 -2.86147,1.39165 -3.40709,2.62373 -8.09238,4.88577"
           sodipodi:nodetypes="csssc" />
      </g>
      <g
         id="g16374"
         transform="translate(0,308.70465)">
        <path
           style="display:inline;fill:#000000;stroke-width:0.666667"
           d="m 2514.4829,1488.5157 c -2.8499,-2.1995 -3.4503,-3.0411 -6.0434,-8.4713 -9.499,-19.8913 -15.6528,-79.8298 -18.8614,-183.7111 -2.5516,-82.6077 -2.2138,-272.3472 0.6634,-372.66662 7.043,-245.56981 30.7041,-402.19616 69.5918,-460.66667 5.501,-8.27136 15.366,-18.00592 21.4545,-21.17094 5.4743,-2.84578 11.2657,-4.50711 15.5786,-4.46896 6.5443,0.0579 14.1474,5.35176 19.7525,13.7533 2.5469,3.8175 8.2741,14.66651 8.2741,15.67358 0,0.28216 -0.825,0.38308 -1.8333,0.22426 -1.0084,-0.15882 -2.902,-0.45433 -4.208,-0.6567 -1.9695,-0.30515 -2.5681,-0.80636 -3.5083,-2.93737 -3.112,-7.05353 -9.7609,-15.36487 -14.0365,-17.54611 -5.7852,-2.95142 -15.985,0.32658 -24.2285,7.78657 -44.1161,39.92273 -71.9091,203.24842 -79.5273,467.34237 -3.1166,108.04039 -3.4314,293.05119 -0.646,379.66669 2.7239,84.7068 7.3292,137.7498 14.3716,165.5321 1.894,7.472 4.7424,14.2064 6.7651,15.9954 1.3066,1.1555 1.4168,1.1382 3.4073,-0.5368 20.3356,-17.1113 63.4657,-158.9915 104.7722,-344.6574 10.2116,-45.8993 25.0238,-117.8163 31.75,-154.15432 1.0338,-5.58493 2.0866,-9.93493 2.3396,-9.66667 0.2529,0.2682 1.3378,3.45734 2.4108,7.087 l 1.9509,6.59934 -1.1909,6.06733 c -12.9918,66.19092 -20.2163,101.07922 -30.2694,146.17562 -37.9293,170.1441 -77.2581,303.8447 -99.6961,338.9225 -3.154,4.9308 -7.469,9.6446 -10.0901,11.0227 -2.7242,1.4324 -6.7002,1.1933 -8.9432,-0.5378 z m 189.9746,0.088 c -11.4168,-1.9073 -21.7186,-9.408 -28.1514,-20.4965 -7.112,-12.2596 -11.2664,-28.263 -14.2188,-54.7736 -1.1487,-10.314 -1.1555,-67.8327 -0.01,-85.3334 5.5642,-85.0193 14.1735,-149.576 28.495,-213.669 2.7854,-12.4654 5.2377,-24.804 5.4496,-27.4192 0.4436,-5.4765 -0.8234,-13.5785 -2.1235,-13.5785 -1.6667,0 -9.3311,9.0125 -11.5385,13.568 -4.4746,9.2347 -4.2908,15.4548 0.614,20.7758 2.4358,2.6424 2.4728,2.7617 1.8166,5.8387 -0.7653,3.5882 -0.991,3.5689 -5.7027,-0.489 -1.6501,-1.4211 -3.6752,-4.1831 -4.9177,-6.7069 -1.9824,-4.027 -2.094,-4.6396 -1.8147,-9.9619 0.2697,-5.1373 0.6007,-6.2838 3.5176,-12.1812 2.6557,-5.3691 4.1664,-7.4491 8.6201,-11.8678 3.282,-3.2563 7.0176,-6.2044 9.524,-7.5164 8.0386,-4.2077 18.618,-5.7985 27.0099,-4.0613 11.1186,2.3016 21.9022,11.1937 27.4101,22.602 4.9062,10.1624 5.5526,18.5967 1.8568,24.2306 l -1.2388,1.8884 -1.6864,-4.5595 c -0.9276,-2.5077 -1.8495,-6.3542 -2.0488,-8.5478 -0.7868,-8.6585 -9.383,-21.2232 -17.3872,-25.4139 -1.995,-1.0445 -3.8141,-1.7121 -4.0426,-1.4836 -0.4869,0.4869 2.5847,9.7188 4.4882,13.4895 0.7229,1.432 2.5314,4.132 4.019,6 18.884,23.7135 38.7927,126.9189 44.5728,231.063 1.0658,19.2029 1.0747,68.8341 0.015,82 -4.6635,57.925 -18.6842,80.7744 -52.9773,86.3363 -6.6236,1.0743 -14.107,1.1766 -19.5499,0.2672 z m 24.6266,-8.5499 c 27.1795,-7.0415 38.3813,-31.4688 41.1436,-89.7202 3.3112,-69.8275 -7.2154,-174.7135 -24.7026,-246.1345 -6.2034,-25.3358 -12.7676,-42.9836 -18.9199,-50.8656 -3.866,-4.9528 -6.0691,-9.4932 -9.0426,-18.636 l -2.5035,-7.6973 -3.2497,0.1903 c -4.1303,0.242 -9.4753,1.4293 -9.9592,2.2124 -0.2047,0.331 0.1363,3.6423 0.7577,7.3583 1.4871,8.8937 1.1437,12.1425 -3.3722,31.9057 -15.135,66.2362 -23.5144,127.4992 -29.8171,218 -0.5303,7.6147 -0.8562,25.3414 -0.8517,46.3333 0.01,28.413 0.2026,35.6432 1.1964,44 4.8592,40.858 15.4147,60.0174 35.463,64.3696 4.3457,0.9434 18.0561,0.1871 23.8578,-1.316 z m -25.8578,-218.0971 c -5.684,-0.7718 -13.4009,-2.6846 -18.3333,-4.5443 l -3.6667,-1.3825 0.231,-3.3482 c 0.1271,-1.8415 0.3148,-3.3482 0.4171,-3.3482 0.1023,0 1.8594,0.7401 3.9047,1.6446 4.943,2.186 12.7362,4.1262 20.2124,5.0318 10.9946,1.332 25.3876,-1.2162 35.4274,-6.2721 5.138,-2.5875 12.5106,-7.9374 13.5089,-9.8027 1.1418,-2.1334 1.7617,-1.4382 2.2238,2.4938 0.5272,4.4858 0.2221,4.9296 -6.4299,9.3518 -12.0936,8.0398 -31.9295,12.2897 -47.4954,10.176 z m 0.6667,-137.838 c -1.1,-0.2557 -1.9573,-0.693 -1.905,-0.9718 1.0577,-5.6437 0.6985,-5.2007 3.7691,-4.6496 6.6487,1.1932 17.3126,-0.029 24.5162,-2.8104 0.7749,-0.2991 1.2472,0.2478 1.817,2.1043 0.4234,1.3797 0.5522,2.7131 0.2862,2.9631 -0.2659,0.25 -2.5835,1.1236 -5.1502,1.9414 -3.5628,1.1352 -6.6377,1.5344 -13,1.6875 -4.5833,0.1103 -9.2333,-0.01 -10.3333,-0.2645 z m -43.5477,115.4306 c -7.6131,-10.2768 -13.9042,-28.3578 -17.2402,-49.5493 -1.8333,-11.6462 -1.6575,-41.6837 0.331,-56.5341 5.5332,-41.3243 17.5713,-66.4077 38.343,-79.8944 2.743,-1.781 5.4485,-3.5382 6.0122,-3.9048 1.1974,-0.7788 -1.8564,-11.7534 -22.4462,-80.66669 -18.1544,-60.7618 -22.2174,-74.52967 -30.6914,-104 -59.5066,-206.94904 -77.0024,-323.75832 -55.4845,-370.43858 5.2039,-11.2892 13.5525,-18.92576 23.5116,-21.50643 8.2757,-2.14444 22.082,-0.93123 33.7007,2.96139 35.5866,11.92262 57.5034,47.33548 66.4176,107.31695 3.0901,20.79264 4.1298,38.06979 4.132,68.66667 0,28.22449 -0.5894,42.27973 -3.0717,73 -1.9387,23.99147 -6.0215,60.34533 -9.5461,85 -1.3854,9.691 -1.4037,9.6496 -3.4322,-7.79773 l -1.3329,-11.4644 1.6689,-13.5356 c 14.9651,-121.37741 10.5794,-207.30569 -12.9066,-252.8734 -5.5932,-10.85215 -9.6491,-16.56087 -17.0814,-24.04262 -7.359,-7.40785 -13.1868,-11.52061 -21.5028,-15.17455 -9.6661,-4.24721 -15.1965,-5.39287 -26.1666,-5.4206 -9.4503,-0.0239 -9.7542,0.0203 -13.5747,1.97556 -27.4496,14.0478 -29.6095,79.21317 -6.3749,192.33334 14.3123,69.68127 33.8664,142.8832 74.6171,279.33333 14.3874,48.17476 24.0502,81.07696 25.713,87.55316 0.5809,2.2624 1.2867,4.3524 1.5685,4.6442 0.2819,0.292 2.7276,-0.083 5.435,-0.8333 2.7074,-0.7502 5.7535,-1.3641 6.7692,-1.3641 2.0865,0 2.144,-0.2681 1.1582,-5.409 -4.0433,-21.0867 -10.0534,-62.47675 -15.9617,-109.92429 -4.2207,-33.89447 -5.3279,-43.117 -13.0459,-108.66667 -21.1397,-179.54061 -35.5076,-269.01365 -51.7081,-322 -1.5135,-4.95 -2.8975,-9.50935 -3.0757,-10.13189 -0.287,-1.00265 -0.031,-1.05578 2.2446,-0.46535 5.6809,1.4741 5.8116,1.59916 7.4334,7.11239 17.3553,58.9961 30.509,140.3854 51.7952,320.48485 12.8729,108.9166 15.9502,133.73207 21.04,169.66667 2.3651,16.69749 7.7977,50.22059 9.1721,56.59849 0.4814,2.234 0.5655,2.2808 6.1414,3.4178 15.9911,3.2604 31.1563,13.5 40.4579,27.317 7.9191,11.7634 13.675,30.2814 16.9602,54.5652 1.7131,12.6627 2.4223,42.9589 1.2924,55.209 -1.096,11.884 -5.7178,33.8206 -8.0318,38.122 -0.2652,0.4928 -0.9784,-2.3123 -1.585,-6.2338 -0.6066,-3.9214 -0.9842,-7.3246 -0.8392,-7.5628 0.5046,-0.8284 3.0284,-13.8031 3.78,-19.4329 0.9888,-7.4063 1.3414,-32.9976 0.5832,-42.3333 -1.4929,-18.3846 -4.5461,-35.2889 -8.6128,-47.6853 -7.0435,-21.4705 -17.099,-33.4324 -35.0927,-41.746 -12.5196,-5.7844 -24.403,-5.6685 -37.2749,0.3634 -17.5382,8.2187 -28.3476,21.2611 -36.3042,43.8037 -4.1822,11.8492 -7.7202,28.9254 -9.4472,45.5975 -1.209,11.6723 -1.0198,34.7485 0.3634,44.3 2.2384,15.4571 8.0428,34.2985 13.0967,42.512 1.9977,3.2466 2.4978,7.1871 1.4051,11.0707 -0.4033,1.4334 -0.6508,1.259 -3.3122,-2.3334 z m 9.2992,-301.46322 -2.1826,-7.42627 1.366,-7.16327 c 0.7513,-3.93973 3.3312,-18.8632 5.733,-33.1632 2.4018,-14.3 4.4476,-26.26566 4.5463,-26.5904 0.099,-0.32473 0.8487,5.22527 1.6667,12.33334 1.4134,12.2818 1.4352,13.2218 0.4392,18.92373 -0.5764,3.3 -2.6917,15.45 -4.7006,27 -2.009,11.55 -3.885,21.56527 -4.1691,22.25613 -0.379,0.922 -1.097,-0.7194 -2.6989,-6.17006 z"
           id="path12320"
           sodipodi:nodetypes="sssssssssssssssssscsssscsssssssscssssssssssssssscssssssscsssssssscssssscssssscsssssssssccsssssscssssssssssscssscsssssssssssssssssscsssssssssssssssssssssscssssssss" />
        <path
           style="fill:none;fill-opacity:0.989547;fill-rule:evenodd;stroke:#000000;stroke-width:7.7285;stroke-linecap:round;stroke-linejoin:round;stroke-miterlimit:4;stroke-dasharray:15.457, 15.457;stroke-dashoffset:0;stroke-opacity:1;marker-end:url(#marker14439);paint-order:fill markers stroke"
           d="m 2727.4331,1529.2301 v 58.3143"
           id="path14337"
           sodipodi:nodetypes="cc" />
      </g>
      <g
         id="g16454"
         transform="translate(0,481.92625)">
        <path
           style="display:inline;fill:#000000;stroke-width:0.666667"
           d="m 1803.5255,1265.565 c -13.2021,-2.4262 -21.0306,-5.0299 -28.179,-9.3724 -4.1393,-2.5144 -11.6125,-9.1231 -13.8159,-12.2174 l -1.2741,-1.7893 4.641,0.8775 c 3.8883,0.7352 5.3699,1.4374 9.1345,4.3292 9.266,7.1178 22.2614,11.642 35.5437,12.3742 16.1119,0.8883 33.1244,-4.4533 43.275,-13.5876 3.0797,-2.7712 4.1466,-3.307 7.7883,-3.9105 2.3209,-0.3846 4.2198,-0.5325 4.2198,-0.3286 0,0.9122 -6.1889,7.7847 -9.427,10.4683 -5.0258,4.165 -15.664,9.269 -23.573,11.3098 -5.3912,1.3911 -8.5798,1.7616 -16.6666,1.9366 -5.5,0.119 -10.75,0.079 -11.6667,-0.09 z m -13,-25.3718 c -51.7712,-3.124 -81.8872,-20.142 -87.9465,-49.697 -1.9241,-9.385 -0.8458,-20.6452 2.9011,-30.2947 2.4446,-6.2956 5.2592,-9.9867 16.85,-22.0976 15.7635,-16.4708 27.5326,-31.1755 29.1889,-36.4692 0.4588,-1.4667 1.0511,-2.9048 1.3162,-3.1958 0.265,-0.2911 1.5583,0.7844 2.8738,2.3899 l 2.392,2.919 -1.6442,5.6101 c -5.0349,17.1798 -7.7952,38.0281 -7.848,59.2768 -0.049,19.4118 1.8321,32.9261 6.6226,47.5932 0.9374,2.8703 1.5625,5.3606 1.389,5.5341 -0.1734,0.1735 -1.7658,-0.093 -3.5385,-0.5931 l -3.2231,-0.9085 -1.5232,-5.3129 c -2.5103,-8.7555 -4.7049,-20.7606 -5.5414,-30.3128 -1.3247,-15.1259 -0.023,-43.3014 2.6644,-57.6661 0.343,-1.8331 0.5414,-3.415 0.441,-3.5154 -0.1004,-0.1003 -2.5283,2.4494 -5.3954,5.6662 -2.8672,3.2168 -8.1064,8.8486 -11.643,12.5153 -9.8039,10.1649 -13.261,14.2299 -14.9624,17.593 -4.1838,8.2708 -5.95,20.0701 -4.3887,29.3196 1.1082,6.5651 5.4951,15.2654 10.1422,20.1143 15.0047,15.6564 40.4612,23.3772 80.5399,24.4273 28.7448,0.7531 57.7765,-2.1966 76.4836,-7.7711 26.8084,-7.9886 39.5164,-20.2027 39.5164,-37.9808 0,-7.0314 -1.2022,-11.9531 -4.731,-19.369 -2.5628,-5.3858 -3.3466,-6.3014 -15.816,-18.476 -7.2158,-7.0451 -13.3768,-12.8201 -13.691,-12.8333 -0.3142,-0.013 -0.361,0.501 -0.1038,1.1427 0.2572,0.6416 0.6326,9.4354 0.8342,19.5416 0.497,24.9081 -0.8108,37.9965 -5.5991,56.035 l -1.7015,6.41 -3.6546,1.0172 c -3.3641,0.9364 -3.6288,0.9303 -3.3294,-0.077 4.7987,-16.1402 6.6502,-25.3024 7.7654,-38.4272 1.6404,-19.3073 -0.027,-45.0457 -4.2554,-65.7114 l -1.5598,-7.622 2.7543,-2.431 c 1.7895,-1.5795 2.9056,-2.1633 3.1861,-1.6667 0.396,0.7013 2.4936,10.5607 3.5406,16.6419 0.3836,2.2283 2.6087,4.7108 17.9265,20 16.7401,16.7087 17.606,17.6984 20.2312,23.1225 3.9011,8.0601 4.9343,11.9995 5.3333,20.3333 0.574,11.9881 -2.3214,19.9339 -10.3838,28.496 -14.4141,15.3076 -41.8895,23.9258 -84.4129,26.4777 -10.3466,0.6209 -29.7502,0.7493 -38,0.2515 z m 15.2617,-112.2398 c -5.4023,-0.9737 -14.2441,-3.9341 -18.5744,-6.219 l -3.9794,-2.0997 5.3127,-0.4641 c 4.2961,-0.3754 6.0782,-0.2225 9.3127,0.7985 12.8777,4.065 25.3447,3.222 36.6057,-2.4751 2.967,-1.501 3.6823,-1.6028 7.6667,-1.0907 l 4.3943,0.5647 -4.1402,2.765 c -9.6983,6.4768 -25.9809,10.134 -36.5981,8.2204 z m -22.9284,-14.6927 c -5.4153,-1.102 -11.0534,-4.4449 -17.0157,-10.0887 -18.0924,-17.126 -29.0971,-49.2946 -30.7443,-89.8706 -1.2432,-30.62412 6.4508,-56.56266 21.3066,-71.83092 3.7359,-3.83961 4.0092,-3.76447 4.7405,1.30326 0.4387,3.04034 0.3385,3.29174 -3.1887,8 -6.2631,8.36014 -10.9342,19.14427 -13.377,30.8834 -5.7136,27.45786 -0.7972,68.84616 11.2443,94.65906 8.1337,17.4358 20.8983,29.7933 30.9211,29.935 3.2005,0.045 3.7469,-0.1661 5.5,-2.127 1.6162,-1.8077 1.9466,-2.7589 1.9466,-5.6046 0,-4.1597 -2.6046,-18.5516 -3.3574,-18.5516 -1.8192,0 -10.6426,14.1582 -10.6426,17.0772 0,0.5076 -0.1818,0.9228 -0.4041,0.9228 -0.9043,0 -5.5959,-4.1742 -5.5959,-4.9788 0,-0.4767 1.2555,-3.3752 2.79,-6.441 4.9743,-9.9384 15.0496,-18.3477 25.7494,-21.4917 17.0565,-5.0118 35.268,2.5676 44.639,18.5782 2.7182,4.6442 5.8738,12.8367 5.2028,13.5076 -0.1935,0.1936 -1.7936,0.4905 -3.5558,0.6598 l -3.2038,0.3079 -1.1753,-3.7284 c -1.4621,-4.638 -6.9323,-12.9176 -10.6201,-16.0743 -3.1323,-2.6811 -10.0488,-6.3393 -11.9857,-6.3393 -1.5546,0 -1.3379,1.3588 1.6475,10.3334 2.6746,8.04 4.0572,10.5989 7.951,14.7161 7.9445,8.4001 19.3761,8.9803 30.5056,1.5483 7.6637,-5.1176 14.4027,-15.5274 17.4578,-26.9671 2.2026,-8.2473 2.4439,-21.3829 0.624,-33.964 -5.3871,-37.2423 -14.6613,-70.17629 -24.9346,-88.54676 -2.8786,-5.1474 -9.3918,-13.98973 -12.334,-16.7446 -1.8746,-1.75527 -2.0912,-2.35527 -2.0912,-5.794 0,-2.10973 0.2908,-4.0156 0.6461,-4.2352 0.3554,-0.21967 3.0836,1.9294 6.0627,4.7756 17.514,16.73274 29.7101,48.823 38.7561,101.97456 1.8953,11.1364 2.1354,13.9774 2.1042,24.9037 -0.032,11.1567 -0.2039,12.9694 -1.8028,19 -4.3949,16.5766 -13.0235,28.245 -25.4329,34.3928 -11.0184,5.4588 -22.0174,4.834 -30.9739,-1.7595 -6.9498,-5.1161 -10.9461,-12.1249 -15.0569,-26.4066 -1.2921,-4.4893 -2.4912,-8.3043 -2.6648,-8.4778 -0.563,-0.5629 -8.149,1.12 -11.2683,2.4998 -2.0245,0.8955 -3.0361,1.7537 -3.0361,2.5754 0,0.6778 0.7483,5.1197 1.663,9.8708 0.9147,4.7512 1.6647,10.4597 1.6667,12.6856 0.01,10.4365 -8.2453,17.0321 -18.6631,14.9122 z m 79.3969,-27.1319 c -4.5342,-9.3685 -13.2723,-18.9842 -21.9205,-24.122 -9.0614,-5.3833 -18.9818,-8.6668 -26.2661,-8.6938 -8.063,-0.03 -20.7268,4.6597 -29.4446,10.9038 -5.0926,3.6476 -12.0611,10.8467 -15.4379,15.9487 l -2.5574,3.8641 -1.9475,-3.1289 c -2.2959,-3.6887 -2.2026,-4.0432 2.6583,-10.1 2.9064,-3.6214 3.7354,-5.4361 6.8419,-14.9767 1.9442,-5.9708 3.6908,-11.306 3.8815,-11.856 0.1906,-0.55 0.9404,2.15 1.6662,6 0.7258,3.85 1.3989,7.0972 1.4958,7.2158 0.3564,0.4366 4.3795,-1.9804 4.704,-2.826 0.1844,-0.4806 -1.622,-11.64 -4.0142,-24.7985 -19.5631,-107.60436 -34.7998,-211.94429 -42.7238,-292.56989 -3.2354,-32.9204 -5.9295,-67.95957 -6.7165,-87.35467 -0.1934,-4.76667 -0.4879,-9.86667 -0.6544,-11.33334 -0.8402,-7.40027 -1.1035,-67.84864 -0.356,-81.73036 2.9409,-54.61714 10.5502,-89.32166 24.1933,-110.34178 5.6532,-8.70996 11.5592,-14.12902 19.6324,-18.01351 5.5497,-2.67032 6.7411,-2.98433 13.2498,-3.4923 13.1272,-1.02453 26.5102,2.55465 38.3188,10.24813 30.1991,19.67502 43.1474,64.41772 41.7682,144.32982 -0.8248,47.79242 -3.9944,82.77165 -18.7568,207.00001 -13.1796,110.9082 -19.1917,180.9056 -18.123,211 0.569,16.01969 3.4288,36.96999 6.4159,46.99999 0.3276,1.1 1.059,3.6646 1.6253,5.6992 0.9881,3.5496 1.2566,3.8534 6.6344,7.5064 7.0744,4.8055 14.5619,12.6103 18.9712,19.7752 3.4158,5.5505 3.4184,5.5588 2.2756,7.4944 -0.6293,1.0658 -1.7606,2.5172 -2.5141,3.2254 -1.3654,1.2832 -1.3752,1.2769 -2.8998,-1.8732 z m -63.2048,-37.1693 c 2.8556,-0.9119 5.9129,-1.6581 6.794,-1.6581 0.8811,0 1.7401,-0.225 1.9089,-0.5 0.1689,-0.275 -0.1166,-2.9 -0.6344,-5.8334 -4.8596,-27.5296 -11.9732,-85.62426 -23.2651,-189.99993 -16.7395,-154.7292 -26.8435,-233.07655 -37.3934,-289.94937 -1.6756,-9.03296 -1.7013,-9.58792 -0.9575,-20.62679 0.4204,-6.23925 0.996,-11.75782 1.279,-12.2635 0.7765,-1.38766 7.843,35.84952 12.7472,67.17299 9.4347,60.25868 16.2546,115.18907 30.004,241.66667 13.1548,121.00654 18.4408,164.71853 24.0244,198.66663 1.9199,11.6725 1.6662,10.9993 4.1469,11.0047 1.1847,0 4.6479,0.6026 7.6961,1.3333 3.0483,0.7308 5.7816,1.3287 6.0741,1.3287 0.2925,0 -0.1788,-2.925 -1.0473,-6.5 -1.9522,-8.0356 -3.8805,-19.4045 -5.0036,-29.5 -3.1813,-28.59866 2.0917,-100.60906 15.8168,-215.99999 16.4349,-138.1732 19.3098,-169.5429 20.0702,-219.00001 0.6304,-41.00916 -1.7852,-66.81404 -8.4896,-90.69085 -9.012,-32.09429 -25.9346,-50.26959 -51.1984,-54.98831 -17.5946,-3.28627 -29.8601,2.11623 -39.8952,17.57241 -22.7249,35.00145 -29.0583,118.15329 -18.8213,247.10676 6.7651,85.2192 22.2768,198.03273 43.266,314.66659 2.2105,12.2834 4.6732,26.0084 5.4727,30.5 0.7995,4.4917 1.6246,8.1629 1.8335,8.1582 0.209,-0.01 2.7163,-0.7547 5.572,-1.6667 z m -9.4001,-50.03707 -2.1273,-11.95435 0.077,-24 0.077,-24 0.9515,7.66666 c 5.6665,45.65767 5.5501,44.26554 4.5143,53.99996 -0.5267,4.95 -1.0493,9.2795 -1.1612,9.6211 -0.112,0.3415 -1.161,-4.7585 -2.331,-11.33337 z m -11.8082,-69.73902 c -0.3997,-2.90607 -0.2841,-3.59067 0.7315,-4.33334 1.8809,-1.37526 2.0997,-1.13326 2.6005,2.87534 0.3524,2.82 0.2468,3.89846 -0.4232,4.32313 -1.8037,1.14333 -2.4442,0.5124 -2.9088,-2.86513 z m 26.7736,-7.26214 c -0.8204,-4.10186 -0.5548,-5.1526 1.4093,-5.5736 3.0412,-0.65193 11.6669,-1.6704 14.3333,-1.69233 l 2.5,-0.0207 -0.01,2.83334 c -0.01,1.55833 -0.2306,3.14853 -0.5,3.53386 -0.2694,0.38527 -3.8552,1.066 -7.9684,1.51274 -4.1134,0.44673 -7.8976,0.97293 -8.4094,1.16933 -0.6339,0.24327 -1.0659,-0.31887 -1.3546,-1.76273 z m -31.3613,-106.687 c -3.7663,-21.68206 -13.8245,-65.18813 -21.4084,-92.59953 -1.1318,-4.09073 -1.9507,-10.31667 -2.9444,-22.38673 -0.7571,-9.196 -1.3561,-17.146 -1.3311,-17.66667 0.097,-2.0232 11.5848,38.64473 16.9044,59.8442 2.8048,11.17767 3.33,14.71273 6.7286,45.28593 2.0276,18.239 3.5894,33.45294 3.4708,33.80874 -0.1186,0.35586 -0.7576,-2.4728 -1.4199,-6.28594 z m -59.0551,-215.09953 c -18.6682,-56.60834 -21.1934,-64.39878 -25.7697,-79.5 -12.1485,-40.08934 -16.1177,-66.0262 -12.2298,-79.91697 2.4349,-8.69939 7.831,-14.28013 15.6585,-16.19423 11.8385,-2.8949 21.8026,4.45084 31.0611,22.89891 3.596,7.16524 8.69,20.08433 11.1829,28.36125 l 1.4503,4.81564 -1.3471,5.14326 c -0.741,2.82879 -1.3472,5.83675 -1.3472,6.68436 0,0.84761 -0.3,1.54111 -0.6666,1.54111 -0.3667,0 -0.6667,-0.40054 -0.6667,-0.89008 0,-0.48955 -1.3589,-5.36455 -3.0197,-10.83333 -8.6423,-28.45661 -17.6859,-45.3746 -26.8416,-50.21269 -2.5972,-1.37244 -7.6058,-1.10749 -11.1073,0.58756 -6.1552,2.97969 -8.6867,9.49413 -8.555,22.01521 0.2221,21.11276 5.8008,42.37972 31.828,121.33333 l 11.5378,35 0.2795,12.16667 c 0.1536,6.69166 0.2502,12.16666 0.2146,12.16666 -0.035,0 -5.2836,-15.825 -11.662,-35.16666 z"
           id="path12324"
           sodipodi:nodetypes="ssscsssssssssssssssssscscssccsssssssssssssssssscscsscsssssssssssscsssscsssssssssssssssssssssscssssssssssssssssssssssscsssssscssssssscssssssssssssssssssssssssssssscsssssssssssscsccccsssscssssssssccssssssssssssssssssscssssssssscsss" />
        <path
           style="fill:none;fill-opacity:0.989547;fill-rule:evenodd;stroke:#000000;stroke-width:7.7285;stroke-linecap:round;stroke-linejoin:round;stroke-miterlimit:4;stroke-dasharray:15.457, 15.457;stroke-dashoffset:0;stroke-opacity:1;marker-end:url(#marker14717);paint-order:fill markers stroke"
           d="M 1907.4588,945.68034 V 887.36926"
           id="path14713"
           sodipodi:nodetypes="cc" />
        <path
           style="fill:none;fill-opacity:0.989547;fill-rule:evenodd;stroke:#000000;stroke-width:7.7285;stroke-linecap:round;stroke-linejoin:round;stroke-miterlimit:4;stroke-dasharray:15.457, 15.457;stroke-dashoffset:0;stroke-opacity:1;marker-end:url(#marker14883);paint-order:fill markers stroke"
           d="m 1960.7403,1157.2185 v -58.2339"
           id="path14879"
           sodipodi:nodetypes="cc" />
      </g>
      <g
         id="g16488"
         transform="translate(0,489.54951)">
        <path
           style="display:inline;fill:#000000;stroke-width:0.666667"
           d="m 1370.8151,1261.3067 c -15.1499,-2.3564 -29.5201,-9.3593 -37.4404,-18.2458 -15.345,-17.2167 -23.9425,-53.5328 -21.6675,-91.5247 2.1019,-35.1028 8.7099,-60.5601 20.4009,-78.5943 3.8311,-5.9097 15.5025,-18.2752 17.2495,-18.2752 0.4738,0 1.4662,1.2485 2.2053,2.7746 l 1.3438,2.7745 -6.0929,6.0588 c -7.0272,6.9879 -11.517,13.8447 -15.964,24.3801 -8.4332,19.9794 -13.0347,46.2827 -13.0347,74.5105 0,20.0941 1.7101,31.7818 7.0188,47.9707 7.3415,22.3876 16.9101,32.9998 35.2869,39.1352 8.1906,2.7346 16.816,3.9252 25.361,3.501 9.467,-0.47 16.9598,-2.3887 25.6666,-6.5724 6.0327,-2.8986 7.7398,-4.1122 12.3532,-8.7816 7.9155,-8.0114 12.7344,-17.8635 17.324,-35.4181 3.9753,-15.2051 4.6562,-21.5905 4.6562,-43.6667 0,-12.1313 -0.3328,-22.3487 -0.8686,-26.6666 -4.7226,-38.0638 -13.2645,-59.7424 -28.288,-71.7922 l -3.9737,-3.1873 0.4419,-3.3315 c 0.2431,-1.8324 0.5846,-3.4741 0.7588,-3.6484 0.1742,-0.1742 1.1297,0.2131 2.1232,0.8606 2.8929,1.8856 8.6192,4.3819 11.6629,5.0843 4.3158,0.996 14.1508,0.8021 18.6663,-0.368 6.9588,-1.8031 13.8105,-5.8394 13.8105,-8.1355 0,-0.5237 -1.1492,-3.4046 -2.5538,-6.4019 -3.0159,-6.4359 -6.2024,-9.5069 -12.4661,-12.0144 -5.8089,-2.3255 -15.5724,-4.2018 -26.6468,-5.1209 -10.8794,-0.903 -50.3222,-0.4551 -60.6666,0.689 -23.7372,2.6251 -39.697,7.8107 -48.1633,15.649 -4.5419,4.205 -6.9435,8.6557 -9.0337,16.7416 -1.3888,5.3722 -1.4004,5.6639 -0.2699,6.7944 0.9269,0.9268 2.2915,1.1812 6.338,1.1812 4.4567,0 5.7467,-0.2904 9.4999,-2.1381 6.876,-3.3851 13.6848,-10.9069 18.96,-20.9455 l 2.4914,-4.7411 2.6839,2.6839 2.6839,2.684 -2.4877,4.5617 c -7.1421,13.0965 -16.848,21.8395 -27.3692,24.6541 -6.5563,1.754 -13.5195,0.7036 -18.0022,-2.7156 -3.5899,-2.7381 -3.8723,-5.0347 -1.6411,-13.3511 2.8342,-10.5649 4.536,-13.7544 10.4768,-19.636 13.5523,-13.4173 36.8752,-19.0749 81.8332,-19.8508 44.4265,-0.7668 65.8211,3.4886 74.3819,14.7945 2.9188,3.8548 7.2848,13.7513 7.2848,16.5128 0,8.0052 -13.4332,15.5668 -29.1629,16.4159 l -7.4962,0.4046 2.0341,3 c 11.6991,17.2542 17.9344,43.6946 19.6519,83.3333 1.319,30.441 -5.3702,63.9474 -16.318,81.7369 -4.4126,7.1703 -8.2562,11.3228 -14.4326,15.5925 -10.3734,7.1712 -22.0042,10.6407 -36.943,11.0204 -5.3167,0.1352 -11.4667,-0.034 -13.6667,-0.3764 z m 3.3333,-137.58 c -14.2964,-2.7694 -25.6987,-9.2754 -29.952,-17.09 -4.8244,-8.864 -1.7001,-21.6096 8.138,-33.1994 2.1538,-2.5372 3.1619,-3.3048 3.5026,-2.6666 0.6886,1.2897 2.1421,11.9542 1.6908,12.4055 -0.2087,0.2087 -0.3794,-0.2529 -0.3794,-1.0257 0,-2.5778 -1.177,-2.1775 -3.2928,1.1198 -4.3175,6.7282 -5.9175,15.2852 -3.7866,20.2511 2.0999,4.8939 8.4173,9.3691 17.7461,12.5713 5.7345,1.9684 7.0898,2.1771 14.3333,2.2073 6.598,0.027 8.8734,-0.2409 12.9832,-1.5314 13.7765,-4.3257 20.0168,-10.2348 20.0168,-18.9541 0,-3.3478 -1.8882,-10.2072 -3.3441,-12.1478 -0.2751,-0.3667 -0.3101,-3.3667 -0.078,-6.6667 l 0.4221,-6 2.0781,3 c 4.8855,7.0532 8.2553,15.905 8.2553,21.6857 0,1.5064 -0.4783,4.3494 -1.0628,6.3178 -3.7822,12.7361 -29.0074,23.261 -47.2706,19.7232 z m -11.2045,-26.251 c -0.5929,-0.6551 -1.7281,-2.661 -2.5228,-4.4575 l -1.4449,-3.2665 1.3404,-1.0425 c 0.7372,-0.5734 1.8546,-1.346 2.4832,-1.7169 1.0448,-0.6166 1.0746,-1.2456 0.348,-7.3334 -1.5087,-12.6418 -5.0062,-23.4016 -9.9355,-30.5661 -1.1104,-1.6139 -4.2799,-5.3379 -7.0433,-8.2754 l -5.0244,-5.3409 4.1482,-0.7307 4.1482,-0.7307 2.575,2.4924 c 3.8368,3.7138 8.8584,10.628 11.0649,15.2349 7.0275,14.6727 10.2365,40.6159 5.6508,45.6831 -1.4242,1.5737 -4.3858,1.5994 -5.7878,0.05 z m 30.3651,-3.3257 c -1.0892,-1.0175 -2.5856,-3.0425 -3.3253,-4.5 -1.6561,-3.2633 -5.0864,-13.9611 -6.1579,-19.2047 l -0.7946,-3.8879 -4.3874,0.2213 -4.3873,0.2213 -0.8031,-3.1071 -0.8031,-3.107 4.3209,-0.8154 c 4.0438,-0.763 11.0099,-0.5522 14.6772,0.4442 1.3194,0.3584 1.5,0.8398 1.5,3.9964 0,3.0801 -0.1794,3.5889 -1.2652,3.5889 -1.2374,0 -1.2362,0.1135 0.059,5.1667 1.0157,3.9628 1.2165,6.1763 0.8613,9.5 l -0.4631,4.3333 1.4081,-1.2737 c 1.5502,-1.4023 1.5301,-1.4088 2.7234,0.8803 1.4432,2.7685 1.8094,0.4541 2.2584,-14.2733 0.6351,-20.8302 2.695,-29.0927 9.1731,-36.7952 2.7823,-3.3081 3.0596,-3.4631 6.2449,-3.4908 1.8334,-0.016 4.0207,0.155 4.8608,0.38 1.4318,0.3836 1.2603,0.6858 -2.7406,4.83 -8.0047,8.2915 -9.5701,13.8198 -10.3938,36.7073 -0.5776,16.0478 -1.1293,18.8411 -4.1376,20.9483 -2.4654,1.7268 -6.1168,1.3963 -8.4282,-0.7629 z m -25.2822,-45.5639 -1.455,-3.2417 3.455,-0.951 c 1.9002,-0.5231 4.6151,-1.1457 6.033,-1.3837 2.575,-0.4322 2.5776,-0.4358 2.1667,-3.0546 -0.2263,-1.442 -0.5945,-3.7889 -0.8183,-5.2154 l -0.4068,-2.5938 3.2402,-0.2962 c 1.7821,-0.163 3.4568,-0.1142 3.7216,0.1084 0.2648,0.2227 0.8169,2.6598 1.2268,5.416 l 0.7453,5.0111 5.0465,0.8029 c 2.7756,0.4416 5.1221,0.88 5.2144,0.9741 0.3425,0.3495 -1.4782,6.5705 -1.9345,6.6096 -0.2607,0.023 -2.4547,-0.3331 -4.8755,-0.7898 -4.8968,-0.924 -12.1578,-0.5257 -16.9044,0.9273 l -3,0.9184 z m 26.2196,-10.4642 c -1.3372,-2.8496 -2.4313,-5.5428 -2.4313,-5.9848 0,-0.5302 1.2535,-0.8038 3.6832,-0.8038 3.3929,0 3.7373,0.1426 4.3712,1.8097 0.5707,1.5011 0.3572,2.5217 -1.2519,5.9849 l -1.9398,4.1751 z m -68.1838,-21.5613 c -2.8547,-4.4757 -8.0293,-16.4568 -9.9313,-22.99425 -5.3942,-18.5412 -7.1377,-49.831 -4.0343,-72.40014 1.4169,-10.3048 6.0569,-28.58593 6.3875,-25.1662 0.053,0.55 0.6061,4.45 1.2287,8.66667 1.0772,7.29566 1.0736,8.0054 -0.073,14.66666 -1.5845,9.20587 -2.2516,33.41801 -1.2306,44.66667 1.8914,20.83714 6.1729,35.97707 13.663,48.31429 1.6917,2.7864 3.0758,5.1682 3.0758,5.2927 0,0.1245 -0.865,0.3993 -1.9222,0.6108 -1.0572,0.2114 -2.6862,0.5762 -3.62,0.8105 -1.468,0.3685 -1.9478,0.035 -3.5436,-2.4677 z m 16.5618,-4.7176 c -20.5124,-118.25732 -32.677,-216.27952 -39.8164,-320.84299 -2.5791,-37.77224 -3.7689,-103.63054 -2.3848,-132 2.4272,-49.74656 7.7751,-83.00002 17.2082,-107 5.3404,-13.58722 8.8872,-19.45781 16.4365,-27.205 5.4771,-5.6207 10.1905,-8.67454 16.6519,-10.78875 8.5041,-2.78262 24.579,-1.10951 35.425,3.68711 35.7151,15.7949 51.24,63.36445 48.3658,148.19647 -1.6214,47.85429 -4.9805,80.22773 -21.3514,205.77684 -13.1561,100.89353 -18.1446,149.3412 -20.6983,201.01733 -0.6694,13.54467 -0.2721,26.84014 1.0999,36.81599 l 0.4355,3.1667 h -3.6713 -3.6714 l -0.4555,-3.4334 c -1.1294,-8.5139 -1.5784,-24.86289 -1.0101,-36.78382 2.4054,-50.4636 7.8782,-103.72494 20.6311,-200.7828 8.2427,-62.73167 13.259,-103.00677 15.3199,-123.00001 7.7587,-75.27099 8.5022,-120.47998 2.5764,-156.66666 -7.0712,-43.18103 -24.7222,-66.47426 -54.2568,-71.60013 -9.2882,-1.61201 -18.4042,-0.0549 -24.4842,4.18225 -20.0678,13.9852 -31.7728,52.04449 -36.6242,119.08454 -1.3442,18.57404 -1.127,100.36664 0.3336,125.66667 5.8944,102.10194 19.5046,217.4462 38.5367,326.59174 1.815,10.40882 3.2163,18.99312 3.114,19.07632 -0.1023,0.083 -1.716,0.3463 -3.5859,0.5846 l -3.3998,0.4333 z m 89.6255,3.4579 c -1.7775,-0.2983 -3.3852,-0.6958 -3.5727,-0.8832 -0.1875,-0.1875 0.292,-1.2298 1.0656,-2.3161 4.8778,-6.8502 9.2082,-19.80585 11.1756,-33.43492 1.5111,-10.4682 1.5033,-33.37833 -0.015,-44.55794 -4.2665,-31.4126 -14.3019,-56.01386 -28.738,-70.45 l -4.1417,-4.14166 0.3117,-3.75854 c 0.2222,-2.6798 0.5868,-3.75853 1.2702,-3.75853 1.6021,0 13.1183,11.9978 16.7938,17.49613 14.5462,21.7598 22.842,53.20607 22.9083,86.83721 0.037,18.92266 -1.8201,32.2106 -6.2849,44.96225 -1.9568,5.589 -6.47,14.781 -7.1811,14.626 -0.1979,-0.043 -1.8141,-0.3225 -3.5916,-0.6207 z m -58.0402,-4.4336 c -1.5343,-9.7013 -7.193,-65.74909 -10.6887,-105.86729 -3.7604,-43.15673 -5.5146,-65.14667 -11.3574,-142.3774 -6.9092,-91.32533 -16.7425,-159.16967 -32.721,-225.75534 l -3.5653,-14.85752 0.9914,-8.47178 c 0.5452,-4.65948 1.1035,-8.58392 1.2405,-8.72097 0.3562,-0.35619 1.963,5.36142 6.4214,22.84967 12.9142,50.65742 23.5603,114.09483 30.2707,180.37667 0.9119,9.0072 3.9049,45.61527 6.6511,81.35134 6.9159,89.99666 10.6375,133.41046 15.9964,186.60533 0.9049,8.98334 1.9806,20.6772 2.3902,25.98639 0.4096,5.3092 0.7968,9.9592 0.8604,10.3333 0.063,0.3742 -1.2804,0.7706 -2.9866,0.8809 l -3.1024,0.2005 z m -22.0184,-19.29942 -1.9119,-11.23453 0.1322,-28.66667 c 0.1241,-26.91014 -0.2746,-39.1228 -1.959,-60 -4.092,-50.71834 -12.9223,-102.2552 -27.9282,-163 -2.8687,-11.61274 -3.2935,-14.31614 -3.9807,-25.33334 -0.4231,-6.78333 -0.9144,-14.58333 -1.0918,-17.33333 l -0.3226,-5 2.6939,9.33333 c 7.2884,25.25107 16.6044,63.8936 22.3402,92.66667 9.627,48.29213 14.746,88.1044 17.0344,132.4828 1.4349,27.82833 -0.079,77.69407 -2.6034,85.75179 -0.3456,1.1029 -1.0582,-1.76399 -2.4031,-9.66672 z m -18.1179,-119.1718 -0.6314,-4.98074 2.7897,-3.20766 c 1.5343,-1.7642 2.9676,-3.03334 3.185,-2.82034 0.2174,0.21307 0.5861,2.21354 0.8195,4.44554 0.4536,4.3402 0.6708,3.87153 -5.1095,11.0222 -0.2319,0.287 -0.7059,-1.7196 -1.0533,-4.459 z m 37.7417,-24.03334 c 0,-2.76506 0.2588,-3.65513 1.1667,-4.01193 1.7916,-0.7042 13.0184,-1.2562 15.6206,-0.768 2.1462,0.4026 2.2945,0.5892 2.0599,2.5922 -0.6024,5.14307 -0.1201,4.825 -7.3175,4.825 -3.5913,0 -7.6547,0.20613 -9.0297,0.45807 l -2.5,0.45813 z m -80.9213,-223.86273 c -1.746,-5.59167 -8.3844,-26.51667 -14.7518,-46.5 -21.7932,-68.39508 -26.8212,-86.18488 -31.0901,-110 -1.1456,-6.39118 -1.496,-10.89698 -1.5035,-19.33334 -0.01,-10.20259 0.117,-11.35244 1.7384,-15.86196 3.1065,-8.6408 9.0054,-13.86492 17.4512,-15.45522 9.5961,-1.80687 18.0124,3.59124 27.2877,17.50205 5.5903,8.38411 17.0581,32.96837 16.1011,34.5169 -0.2076,0.33587 -0.9008,3.04309 -1.5403,6.01605 l -1.1629,5.40536 -3.5653,-9.22825 c -7.5094,-19.43679 -14.6888,-32.64825 -21.9219,-40.34051 -5.31,-5.64704 -8.9609,-7.54123 -13.3136,-6.90739 -15.6393,2.27745 -18.1234,21.48585 -8.1286,62.85332 4.7039,19.46845 9.9119,36.86383 27.2795,91.11679 l 10.0147,31.28381 0.4506,12.54953 c 0.2478,6.90224 0.3108,12.54952 0.14,12.54952 -0.1708,0 -1.7391,-4.575 -3.4852,-10.16666 z"
           id="path12326"
           sodipodi:nodetypes="cssssscsssssssssscscsssssssssssssssscccssssssssscssssscssssssssscsssscsssssscssssscccsssssssscccccsssssscsssssssssssccsssscssscsscssccssssscscsssssssssscssssssssssscccsssssssssssscssscssscsssssssssssscssssssscscsscssssscsssssscssssssssssscsssscssssscssssscsss" />
        <path
           style="fill:none;fill-opacity:0.989547;fill-rule:evenodd;stroke:#000000;stroke-width:7.7285;stroke-linecap:round;stroke-linejoin:round;stroke-miterlimit:4;stroke-dasharray:15.457, 15.457;stroke-dashoffset:0;stroke-opacity:1;marker-end:url(#marker15057);paint-order:fill markers stroke"
           d="M 1490.7055,1032.4735 V 974.15877"
           id="path15053"
           sodipodi:nodetypes="cc" />
      </g>
      <g
         id="g16532"
         transform="translate(-47.304589,463.11208)">
        <path
           style="display:inline;fill:#000000;stroke-width:0.666667"
           d="m 528.33316,1268.6964 c -22.52387,-4.2579 -36.26248,-14.2772 -44.92529,-32.7631 -9.74078,-20.7863 -14.00144,-49.1472 -11.95976,-79.6096 2.2181,-33.0945 9.1397,-58.5434 20.75715,-76.3186 3.7779,-5.7803 15.08632,-17.5032 15.99705,-16.5833 0.30963,0.3127 0.92771,1.9374 1.37351,3.6104 l 0.81054,3.0418 -3.45298,3.2299 c -14.93558,13.9705 -25.44997,42.8395 -28.77982,79.0198 -1.05475,11.4604 -0.89157,33.6625 0.31359,42.6667 2.70617,20.2185 9.78714,40.1614 17.62936,49.6516 19.77565,23.9312 66.22417,25.4803 87.8474,2.9296 6.67676,-6.9631 11.79063,-17.3034 15.80939,-31.9666 4.11962,-15.0314 5.72742,-27.6197 5.74507,-44.9814 0.0387,-38.1158 -7.45219,-72.1468 -19.65683,-89.2999 -2.76326,-3.8837 -9.11394,-10.2548 -13.64156,-13.6855 -2.19452,-1.6628 -2.213,-1.721 -1.37668,-4.3333 0.46623,-1.4563 1.0918,-2.9132 1.39016,-3.2375 0.80037,-0.87 8.30047,4.7523 13.3768,10.0277 15.73302,16.35 23.87281,43.4168 25.91743,86.1817 0.35318,7.387 0.50844,15.4446 0.34504,17.9056 -0.1634,2.461 -0.47212,7.5643 -0.68604,11.3405 -1.07876,19.0423 -7.23901,42.6355 -14.50201,55.5414 -7.51197,13.3484 -19.26182,22.0626 -35.53568,26.3549 -5.5212,1.4563 -8.38832,1.7829 -17.28574,1.9693 -7.14189,0.1496 -12.26717,-0.079 -15.5101,-0.6921 z m 5.59146,-137.0308 c -4.65909,-0.844 -13.42485,-3.8397 -18.05873,-6.1716 -5.43553,-2.7354 -11.79891,-9.2016 -13.24171,-13.4557 -2.07777,-6.1264 -1.14084,-13 2.88027,-21.1307 2.28364,-4.6175 6.78776,-10.7494 7.40325,-10.0788 0.2498,0.2722 0.75479,2.2945 1.12222,4.494 0.59312,3.5506 0.52122,4.2053 -0.64108,5.8376 -2.57407,3.615 -4.70293,9.9934 -4.74856,14.2275 -0.0351,3.2528 0.31182,4.6711 1.73743,7.1037 3.25405,5.5526 10.56592,9.9063 21.11913,12.575 14.79347,3.741 34.26038,-1.6259 40.99848,-11.3028 1.84466,-2.6493 2.01351,-3.3522 2.00163,-8.3334 -0.0109,-4.5666 -0.32195,-6.1137 -1.9374,-9.6357 -1.05844,-2.3077 -2.89291,-5.5579 -4.07661,-7.2228 -1.1837,-1.6649 -2.0525,-3.5269 -1.93067,-4.1377 0.12183,-0.6108 0.41986,-2.6105 0.66229,-4.4438 l 0.44077,-3.3334 3.09397,3.4472 c 6.0204,6.7075 10.39993,15.9064 11.19513,23.5144 1.22033,11.6754 -8.02302,21.2538 -25.4674,26.3905 -6.58052,1.9377 -16.84019,2.6913 -22.55241,1.6565 z m -9.05164,-20.5171 c -1.22219,-0.9897 -1.65312,-2.6297 -2.72942,-10.3875 -4.39287,-31.6633 -8.0575,-42.7996 -17.95109,-54.551 -1.13307,-1.3458 -1.79079,-2.6134 -1.46159,-2.8168 0.3292,-0.2035 2.21416,-0.5435 4.1888,-0.7556 l 3.59024,-0.3856 3.14412,4.2265 c 6.49766,8.7345 10.84416,21.8682 13.8484,41.8452 0.79954,5.3167 1.87831,10.516 2.39726,11.554 1.47014,2.9407 1.2407,9.4822 -0.38978,11.1127 -1.64149,1.6414 -2.75804,1.6795 -4.63694,0.1581 z m 27.3652,-2.0965 c -0.69945,-0.6995 -1.65135,-2.9681 -2.11532,-5.0413 -0.82248,-3.6752 -0.80157,-3.8085 0.83517,-5.3262 1.49647,-1.3876 1.72823,-2.2699 2.13432,-8.1254 1.23455,-17.8011 3.97215,-29.2261 10.05667,-41.9701 l 4.34737,-9.1056 3.49468,0.4636 c 1.92207,0.255 3.57913,0.5481 3.68236,0.6513 0.10323,0.1033 -1.77089,4.3194 -4.16471,9.3693 -2.39382,5.0499 -4.9308,10.9436 -5.63774,13.097 -1.79908,5.4802 -3.80471,18.2182 -5.00785,31.8053 -1.05301,11.8917 -1.47723,13.6047 -3.65799,14.7719 -1.80256,0.9646 -2.51898,0.8582 -3.96696,-0.5898 z m -5.73104,-19.0616 c -0.30246,-1.1 -1.32557,-5 -2.27357,-8.6667 -1.97587,-7.6422 -2.19193,-7.7924 -8.72365,-6.0643 -2.01666,0.5336 -3.88878,0.7542 -4.16026,0.4903 -0.27148,-0.2639 -0.682,-1.8543 -0.91224,-3.5342 l -0.41864,-3.0543 3.5789,-0.8823 c 3.40456,-0.8393 15.57826,-1.1781 16.30271,-0.4536 0.18832,0.1883 0.005,2.2785 -0.40687,4.645 -0.4121,2.3665 -1.12888,7.7265 -1.59286,11.9113 -0.67764,6.1121 -0.95176,7.2154 -1.39352,5.6088 z m -92.11967,-14.2956 c -3.85556,-1.7505 -5.08848,-4.3326 -4.76168,-9.9724 0.32376,-5.5871 2.24572,-9.6064 7.10168,-14.8514 10.2658,-11.0884 28.75482,-18.5998 54.55159,-22.1627 17.95364,-2.4796 52.20049,-2.9877 69.5642,-1.0321 28.06651,3.161 41.5285,10.4886 41.60726,22.6475 0.0371,5.7322 -1.48943,8.3733 -6.08425,10.5263 -3.79393,1.7778 -4.06673,1.8063 -16.85635,1.76 -13.05227,-0.047 -17.3918,-0.6666 -24.83278,-3.5441 l -1.83279,-0.7088 1.48889,-3.0646 c 1.18538,-2.4399 1.76284,-2.9976 2.83279,-2.7361 10.69513,2.614 15.31321,3.2606 23.34389,3.2685 10.06521,0.01 13.62821,-0.8635 14.58043,-3.5743 1.97892,-5.6334 -5.42548,-11.5177 -18.32387,-14.5618 -19.13246,-4.5154 -58.99256,-5.3157 -84.92322,-1.705 -30.73013,4.2789 -51.30265,14.9744 -55.07384,28.6325 -1.15587,4.1863 -0.1175,5.0407 6.12539,5.0407 12.32576,0 26.58276,-5.1288 36.33299,-13.0705 3.83694,-3.1252 3.78463,-3.1354 6.52611,1.2681 1.12974,1.8147 1.11976,1.8995 -0.37501,3.186 -2.85682,2.4588 -8.84984,6.4222 -12.51203,8.2745 -13.04468,6.5981 -31.32341,9.6286 -38.4794,6.3797 z m 71.21354,-19.5424 c -0.86657,-2.2891 -2.45402,-5.6118 -3.52766,-7.3837 -2.40891,-3.9755 -3.11826,-7.0179 -1.82692,-7.8356 0.51159,-0.3239 2.16337,-0.5936 3.67063,-0.5992 l 2.74048,-0.01 0.4204,3.5 c 0.23122,1.925 0.423,4.4573 0.42619,5.6273 0.003,1.17 0.29041,2.3032 0.63826,2.5182 0.52263,0.323 4.53329,-0.3574 7.79349,-1.3222 0.54119,-0.1601 0.40411,-1.7229 -0.47723,-5.4406 -0.68009,-2.8688 -1.24677,-5.306 -1.25929,-5.416 -0.0125,-0.11 1.69242,-0.11 3.78877,0 l 3.81154,0.2 1.09961,4.8556 c 0.60479,2.6706 1.2146,4.9442 1.35513,5.0524 0.14053,0.1083 2.45627,0.5241 5.14608,0.9239 2.68981,0.3999 5.04658,0.883 5.23727,1.0737 0.19069,0.1907 -0.18025,1.7265 -0.82432,3.413 l -1.17102,3.0663 -3.06625,-0.5258 c -6.46204,-1.1081 -14.78762,-0.2551 -21.73291,2.2267 -0.36667,0.131 -1.37568,-1.6347 -2.24225,-3.9238 z m 26.31405,-11.2 c -2.05616,-2.2209 -3.73847,-4.3209 -3.73847,-4.6667 0,-0.3457 1.89771,-0.6287 4.21713,-0.6287 3.57388,0 4.44338,0.2409 5.70056,1.5791 l 1.48344,1.5791 -1.50007,3.0876 c -0.82505,1.6982 -1.70799,3.0876 -1.96209,3.0876 -0.25411,0 -2.14433,-1.8171 -4.2005,-4.038 z m -69.00889,-24.2937 c -10.66966,-15.9561 -16.06292,-32.52443 -16.06292,-49.34589 0,-18.76541 8.81174,-31.95341 28,-41.90607 8.02721,-4.16354 15.06788,-7.12634 15.62087,-6.57334 0.20853,0.20854 0.37914,1.91607 0.37914,3.79454 v 3.4154 l -5.90489,2.5004 c -17.14686,7.26066 -27.12296,17.1142 -30.0973,29.72746 -1.81359,7.69087 -0.51916,21.14621 3.11556,32.38581 2.4145,7.46629 8.09002,18.28699 13.18966,25.14659 l 4.32171,5.8133 -2.81237,0.7264 c -1.54681,0.3995 -3.31213,0.8708 -3.92294,1.0472 -0.81745,0.2361 -2.35525,-1.5406 -5.82652,-6.7318 z m 34.29233,1.0338 c -0.20318,-0.3288 -0.71669,-3.7781 -1.14112,-7.6652 -0.98944,-9.0617 -0.1882,-23.42089 3.77782,-67.70363 5.14652,-57.46373 6.6888,-79.90433 7.43474,-108.17773 0.40249,-15.25547 0.57184,-17.1432 1.51326,-16.86887 0.58303,0.16987 2.22996,0.51667 3.65983,0.77067 l 2.59978,0.46173 -0.45035,15.40713 c -0.8467,28.96667 -2.50037,53.20607 -7.12289,104.40707 -4.65476,51.55807 -5.35525,64.99593 -3.86005,74.04973 0.42145,2.552 0.64645,4.7426 0.5,4.8679 -0.69277,0.5929 -6.58563,0.9777 -6.91102,0.4512 z m 61.81142,0.1431 c -1.55833,-0.1404 -2.83333,-0.5079 -2.83333,-0.8166 0,-0.3088 1.0216,-3.2166 2.27022,-6.4617 5.07919,-13.2008 8.80312,-27.69329 10.73608,-41.78203 0.87094,-6.348 0.93835,-8.80353 0.34644,-12.61853 -1.64936,-10.63034 -8.36059,-18.71547 -20.93077,-25.21567 -4.17232,-2.15753 -4.41667,-2.41333 -4.4104,-4.6174 0.003,-1.28333 0.18424,-2.99573 0.4013,-3.80533 0.38928,-1.45194 0.46886,-1.4348 5.82424,1.25653 7.72575,3.88253 12.20584,7.09373 16.90461,12.11673 4.44865,4.7556 7.70411,10.75994 8.92798,16.46667 1.80812,8.431 -0.63697,27.63394 -5.73675,45.05463 -3.1815,10.868 -7.01396,20.9346 -7.91662,20.7943 -0.41231,-0.064 -2.02466,-0.2313 -3.583,-0.3716 z m -48.39362,-1.3452 c -0.16811,-0.275 -0.63813,-3.2436 -1.04449,-6.5969 -1.13283,-9.3481 -0.24509,-20.08956 5.28131,-63.90316 6.71192,-53.21234 9.24576,-80.57374 10.3874,-112.16667 0.2418,-6.69167 0.62634,-12.15433 0.85452,-12.1392 0.22819,0.0153 1.75776,0.69013 3.39906,1.5 l 2.98417,1.47253 -0.17633,9.66667 c -0.38445,21.07553 -3.30385,55.45187 -7.8697,92.66667 -1.28211,10.45 -3.34863,27.28373 -4.59228,37.40833 -3.28828,26.76994 -4.06158,39.43383 -2.85525,46.75833 l 0.96073,5.8334 h -3.51174 c -1.93147,0 -3.6493,-0.225 -3.8174,-0.5 z m 12.38178,-3.7784 c -0.82226,-4.9622 -0.0413,-14.2827 4.44543,-53.055 3.01569,-26.06026 4.13529,-36.98973 6.07801,-59.33333 2.65893,-30.5808 3.4449,-41.1888 4.21203,-56.84787 l 0.77637,-15.8478 2.5,2.063 2.5,2.06307 v 13.12253 c 0,7.2174 -0.23882,14.02054 -0.5307,15.11814 -0.29189,1.0976 -0.36689,4.2456 -0.16667,6.9956 l 0.36404,5 2.81668,-4.6774 c 5.98112,-9.93234 8.8822,-20.68154 7.4629,-27.65187 -2.68328,-13.17793 -16.19717,-22.25707 -40.61291,-27.2852 -19.97678,-4.11393 -33.49618,-3.22267 -39.31043,2.59153 -6.45358,6.4536 -4.72723,18.31374 5.5831,38.35627 5.69987,11.08013 13.87163,23.84707 14.22645,22.22627 0.40328,-1.8422 -5.30946,-55.5854 -6.24242,-58.72627 -0.30078,-1.0126 0.14201,-1.16667 3.35234,-1.16667 3.28852,0 3.73742,0.1664 4.04625,1.5 0.48424,2.09107 2.69815,20.93094 4.32837,36.83334 1.462,14.2616 1.34266,18.1544 -1.59424,52 l -0.80989,9.33333 -0.45372,-5.66667 c -0.24955,-3.11666 -0.74949,-9.80646 -1.11098,-14.8662 -0.64603,-9.04226 -0.69112,-9.228 -2.63816,-10.86633 -1.08949,-0.91673 -2.36995,-2.75187 -2.84545,-4.078 l -0.86456,-2.41127 -0.33333,2.27194 c -0.33064,2.25353 -0.37139,2.21273 -5.04722,-5.0558 -17.50466,-27.21074 -23.61288,-46.05274 -18.96048,-58.4874 3.55478,-9.501 15.72565,-14.70687 31.67437,-13.5482 18.79168,1.3652 38.02092,6.80073 48.68351,13.76133 6.78928,4.43207 10.46391,8.37667 13.47058,14.46027 2.48545,5.02893 2.51257,5.1706 2.51257,13.1184 0,6.72526 -0.25964,8.79506 -1.59325,12.70126 -2.84261,8.32607 -10.18695,21.70594 -10.63634,19.37727 -0.18397,-0.95333 -0.4779,-0.78147 -1.47932,0.86527 -0.68735,1.13026 -1.98429,2.2394 -2.8821,2.46473 -1.53014,0.384 -1.65905,0.77133 -2.0583,6.18453 -1.98445,26.9056 -3.35017,41.0296 -7.35928,76.10821 -2.77125,24.24766 -4.76091,44.20629 -5.15061,51.66669 l -0.17413,3.3333 -2.72927,0.2 -2.72928,0.1999 z m 17.73285,-205.10373 c -2.71476,-1.3994 -2.60047,-0.90247 -3.59205,-15.61793 -0.22236,-3.3 -0.97985,-10.3154 -1.6833,-15.5898 -2.78393,-20.87374 -1.36969,-51.381 5.72101,-123.41021 4.55542,-46.27522 5.05984,-53.31996 5.46559,-76.33333 0.59584,-33.7953 -1.8347,-51.11538 -9.30864,-66.33333 -5.39653,-10.98809 -17.08234,-20.44184 -26.20317,-21.19821 -4.43788,-0.36802 -6.96187,0.60545 -9.72277,3.74994 -7.06908,8.05123 -10.01315,24.85609 -10.00604,57.11493 0.008,37.06398 2.88352,69.44226 15.77768,177.66667 5.79527,48.64127 6.97877,60.0256 6.99047,67.24234 l 0.007,4.2424 -3.16667,-0.47394 c -1.74167,-0.26066 -3.39167,-0.61246 -3.66667,-0.78173 -0.275,-0.16927 -0.50256,-2.01507 -0.5057,-4.10173 -0.01,-6.46307 -1.17568,-17.59127 -6.64916,-63.46067 -6.49694,-54.44626 -8.14435,-68.92942 -10.31299,-90.66667 -0.93281,-9.35 -1.85245,-18.5 -2.04365,-20.33333 -2.40906,-23.10068 -3.3237,-42.63921 -3.30806,-70.66667 0.0146,-26.13038 0.55637,-32.68388 3.69157,-44.65372 5.59063,-21.34439 19.59729,-27.83077 37.14415,-17.20116 6.48263,3.92709 10.39678,7.68695 14.7005,14.12109 9.3607,13.99439 13.2491,31.14748 13.91876,61.40046 0.52186,23.57541 -0.48876,39.8091 -5.8285,93.62381 -6.83181,68.85199 -7.75811,92.51059 -5.30178,135.41239 0.421,7.35327 0.66708,14.301 0.54683,15.43933 l -0.21863,2.0698 -2.44566,-1.26073 z m -12.88767,-4.91233 -2.66667,-0.82127 -0.52685,-5.94213 c -0.28976,-3.2682 -1.40863,-12.9922 -2.48637,-21.60887 -4.66843,-37.32473 -5.60792,-55.55553 -5.12606,-99.4717 0.20233,-18.44056 0.84793,-42.3783 1.43465,-53.19497 3.51397,-64.78232 2.29178,-87.9416 -5.4239,-102.77749 -2.43444,-4.68098 -7.11823,-9.95972 -10.29468,-11.60232 l -1.88983,-0.97727 1.09011,-2.82146 c 0.59956,-1.5518 1.3275,-3.08896 1.61764,-3.41591 0.69196,-0.77974 6.27161,2.82838 9.37,6.05917 7.7061,8.03543 12.11053,20.47864 13.87602,39.20195 1.06278,11.27098 0.8177,37.22278 -0.63274,67 -3.8225,78.47538 -3.16324,113.81507 2.98478,160 1.49137,11.20347 2.98293,26.03447 3.00035,29.83333 0.008,1.66794 -0.46804,1.7272 -4.32645,0.53894 z m -45.57758,-18.87227 c -3.74213,-23.02413 -8.71859,-44.00633 -22.09679,-93.16667 -18.76036,-68.93786 -24.08006,-93.9928 -26.1332,-123.0832 -1.26783,-17.96352 0.67843,-34.4496 5.34798,-45.30085 6.69902,-15.56739 20.46005,-24.56787 40.22674,-26.31053 l 5.1005,-0.44967 -1.09732,3.71125 -1.09732,3.71125 -3.66984,0.39558 c -16.03737,1.72874 -26.32688,8.3159 -31.95662,20.45806 -6.97652,15.04684 -7.84888,34.54922 -2.97619,66.53478 3.35263,22.0075 9.14762,46.48598 23.59489,99.66666 9.63282,35.45861 14.88387,56.27481 17.99437,71.33334 1.96279,9.5022 6.00704,32.9256 6.00704,34.7914 0,0.61307 -1.06411,0.87527 -3.55212,0.87527 h -3.55213 z"
           id="path12330"
           sodipodi:nodetypes="cssssscsssssssssssssssssscsssssssssssssssscssssssssscsssssssssscsssssssssssscsscssssssssscscssssssssssssssssscssssssscssssscsssssssscsssssssscsssscssssssssscssssssssssscssssssssssssscsssscsssssscccssscssssssssssscsssscsssssssssssssscccssssssssscsscsscsscssssssssccsscsssssscsssssscsssssscccssssssscs" />
        <path
           style="fill:none;fill-opacity:0.989547;fill-rule:evenodd;stroke:#000000;stroke-width:7.7285;stroke-linecap:round;stroke-linejoin:round;stroke-miterlimit:4;stroke-dasharray:15.457, 15.457;stroke-dashoffset:0;stroke-opacity:1;marker-end:url(#marker15239);paint-order:fill markers stroke"
           d="m 520.50736,450.14245 v -58.3131"
           id="path15235"
           sodipodi:nodetypes="cc" />
      </g>
      <g
         id="g16603">
        <path
           style="display:inline;fill:#000000;stroke-width:0.666667"
           d="m 3178.157,2005.0388 c -10.9653,-0.7992 -23.6117,-4.356 -32,-9 -5.9337,-3.2849 -15.1812,-12.2703 -18.5603,-18.034 -10.6746,-18.2078 -16.9962,-49.1392 -15.846,-77.5348 0.8228,-20.3105 2.8231,-35.3287 6.761,-50.7593 8.5651,-33.5621 24.9187,-53.4298 50.9786,-61.933 7.6928,-2.5101 18.9726,-2.6963 26.8682,-0.4435 20.5289,5.8576 36.8434,21.0683 44.7642,41.7359 6.4838,16.9177 9.6208,34.3819 11.1002,61.7973 1.4544,26.952 -1.4919,51.0195 -8.7656,71.6026 -6.9677,19.7172 -17.0635,31.0966 -33.304,37.5387 -8.899,3.5299 -22.7358,5.7052 -31.9963,5.0301 z m 21.6667,-8.1634 c 10.8622,-2.9054 21.2024,-9.1013 26.8618,-16.0958 8.0458,-9.9435 14.2998,-27.0302 17.9264,-48.9762 1.7118,-10.3592 1.707,-43.1734 -0.01,-56.6667 -3.4185,-26.8903 -9.4807,-46.5258 -18.1129,-58.6667 -5.8249,-8.1926 -15.5196,-15.7598 -25.681,-20.0454 -13.0852,-5.5186 -24.5394,-5.0482 -37.6526,1.5462 -10.1837,5.1213 -18.1572,12.0207 -23.8574,20.6435 -13.4074,20.2818 -21.1165,52.9733 -21.1355,89.6279 -0.01,16.2283 1.1264,26.3717 4.3732,39.0898 8.0589,31.5676 20.1213,44.5367 46.953,50.4821 6.5329,1.4475 23.3586,0.9269 30.3333,-0.9387 z m -26.9247,-130.4351 c -15.5419,-3.3718 -27.1418,-11.0891 -29.7206,-19.7728 -2.8985,-9.7605 1.2931,-21.48 11.3021,-31.5998 8.3031,-8.395 17.4888,-12.2643 29.1155,-12.2643 9.5404,0 18.692,3.6383 25.7925,10.2541 5.1694,4.8165 10.5576,13.9978 12.5032,21.305 3.0625,11.5021 -2.081,21.0208 -14.6446,27.102 -11.2078,5.4249 -23.8418,7.2551 -34.3481,4.9758 z m 20.4707,-6.0399 c 9.2958,-2.0577 18.0524,-7.5694 20.9031,-13.1574 4.8355,-9.4784 -4.5769,-27.9388 -17.4491,-34.2226 -16.4026,-8.0072 -35.7822,-0.6506 -44.4414,16.8701 -2.0904,4.2295 -2.5885,6.0176 -2.7904,10.0159 -0.2166,4.289 -0.04,5.2177 1.4842,7.819 2.0488,3.4961 5.2625,6.1592 10.7824,8.935 10.0232,5.0405 20.1865,6.2468 31.5112,3.74 z m -20.5343,-182.0876 c -5.9864,-1.1186 -12.8337,-11.8682 -27.6551,-43.4161 -21.2519,-45.2357 -48.8018,-112.8772 -74.0292,-181.7598 -57.9021,-158.0997 -103.0911,-312.7136 -127.2348,-435.3334 l -3.6754,-18.66664 1.1734,-14 c 0.8073,-9.63147 1.3166,-13.27194 1.6321,-11.66667 0.2522,1.28333 1.8185,9.83333 3.4805,19 25.2645,139.33811 80.2046,325.33861 149.6571,506.66671 26.1431,68.2549 57.1735,139.468 71.3455,163.7337 2.8144,4.819 6.169,8.5996 7.6304,8.5996 4.4031,0 9.6855,-19.4131 12.6074,-46.3333 3.2529,-29.9695 4.0589,-52.8636 4.0369,-114.6667 -0.018,-50.1995 -0.4601,-72.0658 -2.3397,-115.6667 -6.8764,-159.5215 -23.7258,-327.7364 -45.9761,-458.99998 -28.3472,-167.23237 -63.0795,-264.45965 -99.5826,-278.76511 -11.8928,-4.66076 -25.6709,0.99252 -37.61,15.43178 -43.2695,52.33049 -72.4835,228.42269 -79.4117,478.66671 -1.3298,48.0333 -1.4138,160.5697 -0.1528,204.6666 4.0654,142.1641 14.1222,245.7288 28.1284,289.6667 2.9298,9.1909 6.1238,15.5622 8.8047,17.5638 1.6951,1.2655 1.8068,1.2688 3.583,0.105 8.1997,-5.3726 21.0247,-28.8912 35.0831,-64.3354 14.996,-37.8079 33.2046,-94.3901 48.2243,-149.8541 2.8979,-10.7011 5.4225,-19.4617 5.6103,-19.4679 0.1878,-0.01 1.2167,2.5136 2.2865,5.5997 l 1.945,5.6112 -1.5073,5.5555 c -7.9516,29.3062 -19.5404,68.1777 -28.0907,94.2222 -26.3389,80.2296 -48.2293,125.6951 -62.5226,129.8578 -9.0303,2.6299 -15.9508,-6.1828 -22.0589,-28.0902 -9.3267,-33.4516 -17.1601,-96.4229 -22.0307,-177.1009 -0.3763,-6.2334 -0.8406,-13.8834 -1.0318,-17 -3.3504,-54.6162 -4.9391,-125.1792 -4.638,-206 0.2302,-61.7877 0.7255,-87.0582 2.6524,-135.3334 8.6783,-217.41479 34.3602,-370.02925 72.1189,-428.56613 13.288,-20.60032 28.9266,-31.14879 44.1722,-29.79487 18.2461,1.62038 33.7994,17.11691 50.211,50.02769 53.4287,107.14256 99.259,412.67591 110.6009,737.33331 1.0873,31.1238 1.0993,123.0995 0.019,144.3334 -1.4386,28.2716 -3.0868,46.9161 -5.4808,62 -3.1766,20.0144 -6.8227,30.0489 -12.5736,34.6037 -2.4991,1.9794 -3.7733,2.25 -7.4011,1.5722 z m -106.3285,-276.5179 -1.9542,-5.6376 2.886,-11.8436 c 30.7918,-126.365 51.3368,-245.6774 60.7006,-352.5104 2.7769,-31.6826 4.2886,-60.49884 5.2284,-99.66664 l 0.456,-19 3.2446,19.25953 c 3.1043,18.427 3.2265,19.6374 2.8278,28 -0.2292,4.80727 -0.5796,12.19047 -0.7787,16.40713 -4.4134,93.46218 -20.5567,208.43658 -46.0539,327.99998 -7.6361,35.8082 -23.0411,101.068 -24.11,102.1368 -0.2708,0.2708 -1.3718,-2.0445 -2.4466,-5.1452 z m -138.551,-482.32491 c -0.6372,-3.31993 -3.5698,-33.50943 -4.5979,-47.33334 -1.3493,-18.14355 -1.13,-68.75535 0.3583,-82.66666 6.277,-58.67155 23.5864,-93.58436 54.4663,-109.85753 3.4693,-1.82824 7.1721,-3.5238 8.2285,-3.76791 l 1.9207,-0.44384 -1.4557,2.2013 c -0.8006,1.21072 -2.0932,3.4629 -2.8724,5.00485 -1.074,2.12525 -2.3297,3.29013 -5.1902,4.81474 -18.3647,9.78831 -33.6014,33.41595 -41.3028,64.04839 -2.5018,9.95139 -4.9716,24.30988 -6.4787,37.66666 -1.6677,14.77938 -1.7169,68.06913 -0.082,88.33334 l 1.103,13.66666 -1.8249,15.33334 c -1.3197,11.089 -1.9489,14.68747 -2.2727,13 z m 201.3,-116.83214 c -4.6428,-18.4278 -10.3061,-38.06017 -15.6254,-54.16786 -2.5429,-7.7 -4.5496,-14.09002 -4.4595,-14.20004 0.09,-0.11001 1.9708,4.08999 4.1793,9.33334 4.7854,11.3617 9.8463,26.69996 13.0439,39.53336 2.5169,10.10146 6.6161,30.77356 6.2939,31.74018 -0.1092,0.32756 -1.6537,-5.17998 -3.4322,-12.23898 z M 3069.8237,695.0914 c -4.0656,-3.55002 -14.8394,-9.44571 -21.8214,-11.94119 -9.0542,-3.2361 -19.6994,-5.01356 -30.0262,-5.01356 -9.6514,0 -9.389,0.28841 -4.5628,-5.01536 2.0627,-2.26668 2.2241,-2.31797 7.2943,-2.31797 10.9285,0 31.2942,5.02626 39.936,9.85625 1.5569,0.87018 3.419,2.40823 4.1379,3.41789 1.3068,1.83523 8.1026,13.41478 7.8452,13.36749 -0.075,-0.0138 -1.3364,-1.07286 -2.803,-2.35355 z"
           id="path12318"
           sodipodi:nodetypes="ssssssssssssssscsssscsssssssssssssssssssssssscsscsssssssssssssssscscsssssssssssssssssscssscssssssssssscsssssscsssssssssssssssssss" />
        <text
           xml:space="preserve"
           style="font-style:normal;font-weight:normal;font-size:42.0999px;line-height:125%;font-family:sans-serif;text-align:center;letter-spacing:-8.06136px;word-spacing:0px;text-anchor:middle;fill:#000000;fill-opacity:1;stroke:none;stroke-width:1.05249px;stroke-linecap:butt;stroke-linejoin:miter;stroke-opacity:1"
           x="1918.2095"
           y="-3165.498"
           id="text15695"
           transform="rotate(90)"><tspan
             sodipodi:role="line"
             id="tspan15693"
             x="1914.1788"
             y="-3165.498"
             style="font-style:normal;font-variant:normal;font-weight:normal;font-stretch:normal;font-family:'Droid Sans';-inkscape-font-specification:'Droid Sans';stroke-width:1.05249px">うら</tspan></text>
      </g>
      <g
         id="g16413"
         transform="translate(0,340.28192)">
        <path
           style="display:inline;fill:#000000;stroke-width:0.666667"
           d="m 2276.0321,1457.0716 c -14.1292,-6.1914 -30.9052,-59.94 -44.9676,-144.0714 -2.3764,-14.2175 -6.8105,-44.3366 -8.3876,-56.9734 l -1.1198,-8.9735 -3.555,-3.9284 c -4.0102,-4.4314 -9.9271,-15.4588 -12.3782,-23.0693 l -1.5727,-4.8829 -5.4077,-3.5613 c -16.7256,-11.0147 -24.7765,-26.3848 -22.3536,-42.6755 1.5165,-10.196 5.2484,-17.2043 13.5574,-25.4598 6.4012,-6.36 12.935,-11.1809 25.5266,-18.8344 16.7119,-10.1581 22.4259,-14.0514 26.3616,-17.9618 4.3657,-4.3377 6.63,-8.6548 6.63,-12.641 0,-3.0582 -2.472,-14.6698 -3.3174,-15.5826 -0.7574,-0.8178 -5.1662,4.6742 -7.3939,9.2106 -2.7067,5.5118 -3.7694,10.8979 -2.8383,14.3862 0.7243,2.7136 0.7202,2.7233 -2.029,4.7184 l -2.7548,1.9991 -1.2646,-2.8852 c -5.2657,-12.0133 5.8977,-33.0191 21.614,-40.6706 22.0597,-10.7397 44.9884,-1.3863 55.1456,22.4958 1.6892,3.9716 2.8624,10.53 2.3568,13.1748 l -0.3568,1.8665 -2.0032,-1.8759 c -1.1018,-1.0317 -3.7632,-4.0705 -5.9142,-6.7528 -3.3237,-4.1448 -3.9109,-5.2825 -3.9109,-7.5773 0,-3.3082 -3.2484,-8.0603 -8.168,-11.949 -4.6245,-3.6554 -5.3565,-3.4928 -4.0662,0.9033 4.5959,15.6591 12.1797,25.1559 36.5675,45.792 29.192,24.7011 37.7511,36.2679 37.752,51.018 0,14.4649 -10.7425,32.2214 -24.1149,39.8567 -2.3472,1.3402 -2.816,2.0682 -4.4006,6.8333 -5.2907,15.91 -12.9233,26.9473 -23.3179,33.7197 l -4.2519,2.7702 v 31.7551 c -0.01,82.1616 -2.6481,132.467 -8.0395,153.1016 -3.7333,14.2881 -9.8782,20.1194 -17.6246,16.7248 z m 6.889,-8.5714 c 7.8906,-12.8448 11.4138,-60.6994 11.4362,-155.3333 0.01,-18.975 -0.095,-34.5 -0.2208,-34.5 -0.1259,0 -1.9013,0.5753 -3.9452,1.2786 -5.0712,1.7447 -15.8758,3.3888 -22.2387,3.3841 -10.7259,-0.01 -24.5091,-3.0957 -33.0681,-7.4077 -5.0639,-2.5512 -5.347,-2.4983 -4.8765,0.9116 5.1902,37.6227 8.7903,60.2714 13.4315,84.5 10.5448,55.047 22.8188,95.0675 32.6952,106.6058 2.9304,3.4235 4.9265,3.5885 6.7864,0.5609 z m 1.7427,-193.4638 c 23.2106,-5.9251 34.6743,-19.8063 42.4233,-51.3695 3.1683,-12.9049 4.1544,-22.1529 4.2199,-39.5747 l 0.059,-15.5747 3.1667,3.535 3.1667,3.535 -6e-4,9.373 c 0,12.7325 -1.9808,32.0743 -3.7576,36.7044 -0.7634,1.9892 1.2433,0.935 4.4116,-2.3178 5.6913,-5.843 10.5392,-15.4009 12.1034,-23.8626 1.2888,-6.9717 -1.5486,-14.7218 -8.627,-23.5644 -5.0237,-6.2758 -9.9053,-10.8961 -26.7965,-25.362 -14.7488,-12.6311 -23.286,-21.0441 -28.3032,-27.8912 -5.3514,-7.3034 -7.5076,-12.3162 -12.3312,-28.6667 -0.4834,-1.6385 -0.6032,-1.6656 -7.0954,-1.6023 -5.5858,0.055 -7.2972,0.348 -11.1036,1.9042 -2.475,1.012 -4.5,2.235 -4.5,2.7179 0,0.4829 0.9352,4.7228 2.0782,9.4219 2.6517,10.9018 2.492,15.3845 -0.7658,21.4966 -3.9293,7.3723 -11.0248,13.0459 -32.8447,26.2628 -14.0785,8.5277 -20.2647,13.0739 -26.096,19.1774 -11.2283,11.7526 -13.947,25.7942 -7.5946,39.2259 1.5233,3.221 3.5697,5.8747 7.6578,9.9307 3.0685,3.0442 5.8808,5.3485 6.2496,5.1206 0.3689,-0.228 0.5217,-0.6556 0.3395,-0.9502 -0.182,-0.2946 -0.9631,-4.2489 -1.7356,-8.7872 -1.0246,-6.0196 -1.5035,-12.4578 -1.7703,-23.8008 l -0.3658,-15.5492 2.896,-2.9508 c 1.5928,-1.623 3.0585,-2.9508 3.2572,-2.9508 0.1987,0 0.3654,7.575 0.3705,16.8333 0.01,18.599 0.7725,25.5077 4.4074,39.9507 3.5577,14.136 8.582,25.6419 14.1725,32.4556 8.0148,9.7686 20.6175,16.1906 36.7576,18.7308 6.6147,1.0411 18.4659,0.31 25.9515,-1.6009 z m -22.798,-129.7125 c -4.5697,-0.632 -15.2451,-3.7047 -15.7589,-4.536 -0.1775,-0.2873 0.7107,-1.347 1.9738,-2.3548 l 2.2966,-1.8326 5.1608,1.5188 c 4.0858,1.2024 6.7574,1.5142 12.8274,1.497 6.8773,-0.019 8.3187,-0.2448 14,-2.1906 3.4833,-1.193 7.0464,-2.6337 7.918,-3.2015 1.5096,-0.9835 1.6929,-0.9242 3.8676,1.2506 l 2.283,2.2829 -5.201,2.4382 c -9.2546,4.3384 -20.6672,6.3312 -29.3673,5.128 z m -61.7923,-0.4906 c 1.5179,-8.7205 4.0386,-19.3519 6.0292,-25.4286 l 2.3104,-7.0532 -0.7352,-16.6758 c -0.4044,-9.1716 -0.9635,-25.2257 -1.2423,-35.6757 -0.5555,-20.8179 -0.8253,-76.73345 -0.3651,-75.66665 0.1582,0.36666 1.7892,5.7556 3.6246,11.97533 l 3.337,11.30873 v 14.02459 c 0,17.5383 1.308,67.4688 1.8967,72.2664 l 0.4387,3.575 3.3249,-4.8695 c 3.8769,-5.6779 10.4161,-12.4908 15.8071,-16.4686 l 3.7988,-2.8029 -0.9186,-3.1712 c -0.5052,-1.7441 -6.1679,-21.0212 -12.5837,-42.8379 -13.9917,-47.57795 -21.5893,-73.79936 -29.6508,-102.33329 -49.8716,-176.52287 -73.5972,-298.69894 -71.9157,-370.33334 0.7776,-33.13046 5.5291,-52.69346 16.2032,-66.71239 6.9544,-9.13381 16.2631,-13.51755 28.6014,-13.46936 16.3334,0.0638 34.4288,6.3456 49.8557,17.30727 7.0545,5.01262 18.9165,16.83286 24.9623,24.87448 35.259,46.89838 56.2392,128.64601 63.8191,248.66667 2.0289,32.12607 2.4478,45.6278 2.8232,91 0.4146,50.11827 -0.1557,78.60054 -2.7963,139.66667 -0.8958,20.71667 -1.9436,47.18189 -2.3284,58.81169 l -0.6996,21.145 5.4325,5.1883 c 9.1323,8.7217 14.7526,18.0369 19.5461,32.3957 3.2201,9.6459 7.9062,33.1692 6.593,33.0957 -0.2975,-0.017 -2.0674,-1.4417 -3.9332,-3.1667 -3.3309,-3.0795 -3.4139,-3.2512 -4.5786,-9.4697 -2.4212,-12.9283 -7.2976,-26.8857 -12.3852,-35.4495 -9.0306,-15.2006 -27.3999,-26.7524 -43.9772,-27.6556 -5.5272,-0.3011 -7.0971,-0.1199 -12.3334,1.4239 -16.8989,4.9823 -30.2142,16.4535 -38.6127,33.2649 -4.2015,8.4102 -9.0117,22.268 -10.7996,31.1132 l -1.2069,5.9708 -3.5134,2.3328 c -1.9324,1.2831 -3.6817,2.3328 -3.8873,2.3328 -0.2056,0 -0.178,-1.125 0.061,-2.5 z m 96.561,-75.6666 c 0.1812,-1.1917 0.5036,-9.3667 0.7166,-18.1667 0.213,-8.8 1.1164,-32.79999 2.0076,-53.33332 2.6402,-60.83234 3.205,-89.20474 2.8069,-141 -0.3607,-46.93387 -0.8187,-62.00227 -2.8059,-92.33334 -7.057,-107.71107 -25.2524,-185.60173 -54.0396,-231.33193 -19.7144,-31.31752 -44.5378,-48.5562 -73.9546,-51.35798 -16.6914,-1.58974 -28.7807,8.30386 -35.2431,28.84197 -6.7403,21.42138 -7.5609,57.71052 -2.3711,104.84794 8.6481,78.54747 35.0514,193.35067 80.4956,350 24.7182,85.20566 30.434,104.05676 31.4519,103.73206 0.55,-0.1755 3.7,-1.2575 7,-2.4047 3.3,-1.147 8.25,-2.2991 11,-2.56 2.75,-0.2609 4.9532,-0.7653 4.8961,-1.1209 -0.057,-0.3555 -1.1882,-7.3237 -2.5132,-15.4848 -5.429,-33.43545 -12.0158,-83.88499 -21.39,-163.82832 -16.3324,-139.2832 -24.3142,-200.19099 -34.0288,-259.66667 -9.077,-55.57246 -18.762,-99.99636 -28.143,-129.08866 l -1.9633,-6.08865 4.0711,1.08865 4.0711,1.08866 1.8941,5.65144 c 10.0022,29.84327 22.5501,91.89747 33.0978,163.68189 7.833,53.30874 13.5759,98.42894 26.6866,209.66667 7.8978,67.00987 13.6841,113.61867 17.3802,140 3.2505,23.20099 7.7534,51.18969 8.5268,52.99999 0.4046,0.947 1.923,1.6808 5.2401,2.5325 2.5687,0.6596 6.7338,2.2122 9.2557,3.4502 2.522,1.2381 4.7968,2.2734 5.0552,2.3008 0.2584,0.027 0.618,-0.9252 0.7992,-2.1168 z m -87.826,-143.57202 c -3.4272,-12.09994 -3.9642,-14.81767 -4.511,-22.83147 -4.4816,-65.68127 -14.687,-129.9068 -33.9141,-213.42987 -2.2368,-9.71667 -10.4925,-43.61667 -18.3461,-75.33333 -7.8535,-31.71667 -14.6518,-59.53812 -15.1072,-61.82545 -0.6592,-3.31046 -0.6598,-6.04095 0,-13.38581 0.7585,-8.47752 1.9032,-15.0889 2.0473,-11.8251 0.1351,3.05802 8.2147,37.59023 17.4451,74.5598 18.9268,75.80664 25.3439,103.40656 33.2813,143.14323 13.6375,68.27186 20.7639,124.8484 23.0717,183.16666 0.2504,6.325 0.3361,11.49914 0.1906,11.49814 -0.1456,0 -2.0153,-6.1826 -4.155,-13.7368 z m -82.2362,-429.98083 c -0.8992,-2.27856 -0.6116,-26.9326 0.365,-31.28051 2.8146,-12.53159 9.3098,-20.12679 19.4286,-22.71913 10.2344,-2.62192 18.2813,1.66039 26.6723,14.1941 3.2301,4.82475 7.7539,13.38754 7.2586,13.73916 -0.1456,0.10333 -2.0647,-0.0745 -4.2647,-0.39529 l -4,-0.58317 -2.898,-5.22406 c -5.8986,-10.63272 -12.419,-15.8879 -18.7784,-15.13472 -11.597,1.37348 -17.2365,11.58239 -17.3003,31.3176 l -0.023,7.1945 -2.9773,5.08601 c -2.4587,4.20022 -3.0652,4.863 -3.4825,3.80551 z"
           id="path12322"
           sodipodi:nodetypes="csscsscsssssssssscsssscsssssscsssccsccscsscscssscssccccsssssssssssssssssssscssssssccssscssssscsscscsssscsscsscsssssssssssscsssssssssscssccsssssssssssssscssscccssssssssscsssscsssscccsssssscssscsss" />
        <path
           style="fill:none;fill-opacity:0.989547;fill-rule:evenodd;stroke:#000000;stroke-width:7.7285;stroke-linecap:round;stroke-linejoin:round;stroke-miterlimit:4;stroke-dasharray:15.457, 15.457;stroke-dashoffset:0;stroke-opacity:1;marker-end:url(#marker14559);paint-order:fill markers stroke"
           d="m 2393.6203,1147.4815 v -58.3147"
           id="path14555"
           sodipodi:nodetypes="cc" />
        <path
           style="fill:none;fill-opacity:0.989547;fill-rule:evenodd;stroke:#000000;stroke-width:7.7285;stroke-linecap:round;stroke-linejoin:round;stroke-miterlimit:4;stroke-dasharray:15.457, 15.457;stroke-dashoffset:0;stroke-opacity:1;marker-end:url(#marker15489);paint-order:fill markers stroke"
           d="m 2290.4931,1482.5623 v 58.3106"
           id="path15485"
           sodipodi:nodetypes="cc" />
        <text
           xml:space="preserve"
           style="font-style:normal;font-weight:normal;font-size:63.8616px;line-height:125%;font-family:sans-serif;text-align:center;letter-spacing:0px;word-spacing:0px;text-anchor:middle;fill:#000000;fill-opacity:1;stroke:none;stroke-width:1.59654px;stroke-linecap:butt;stroke-linejoin:miter;stroke-opacity:1"
           x="1202.9418"
           y="-2366.8394"
           id="text15691"
           transform="rotate(90)"><tspan
             sodipodi:role="line"
             id="tspan15689"
             x="1202.9418"
             y="-2366.8394"
             style="font-style:normal;font-variant:normal;font-weight:normal;font-stretch:normal;font-family:'Droid Sans';-inkscape-font-specification:'Droid Sans';stroke-width:1.59654px">①</tspan></text>
        <text
           xml:space="preserve"
           style="font-style:normal;font-weight:normal;font-size:61.4757px;line-height:125%;font-family:sans-serif;text-align:center;letter-spacing:0px;word-spacing:0px;text-anchor:middle;fill:#000000;fill-opacity:1;stroke:none;stroke-width:1.53689px;stroke-linecap:butt;stroke-linejoin:miter;stroke-opacity:1"
           x="1488.9792"
           y="-2208.5061"
           id="text16250"
           transform="rotate(90)"><tspan
             sodipodi:role="line"
             id="tspan16248"
             x="1488.9792"
             y="-2208.5061"
             style="font-style:normal;font-variant:normal;font-weight:normal;font-stretch:normal;font-family:'Droid Sans';-inkscape-font-specification:'Droid Sans';stroke-width:1.53689px">②</tspan></text>
      </g>
    </g>
  </g>
</svg>
